tb_spi_controller.vcd
$date
	Thu Oct  9 02:13:27 2025
$end
$version
	Icarus Verilog
$end
$timescale
	1ps
$end
$scope module tb_spi_controller $end
$var wire 1 ! vref_sel_o $end
$var wire 1 " start_conv_o $end
$var wire 1 # start_cal_o $end
$var wire 1 $ spi_miso $end
$var wire 1 % int_en_o $end
$var wire 12 & ctrl_reg_bus [11:0] $end
$var wire 1 ' clk_sel_o $end
$var wire 1 ( auto_mode_o $end
$var wire 1 ) adc_en_o $end
$var parameter 2 * ADDR_CAL $end
$var parameter 2 + ADDR_CTRL $end
$var parameter 2 , ADDR_DATA $end
$var parameter 2 - ADDR_STATUS $end
$var parameter 32 . CLK_PERIOD $end
$var parameter 2 / CMD_CLEAR $end
$var parameter 2 0 CMD_READ $end
$var parameter 2 1 CMD_SET $end
$var parameter 2 2 CMD_WRITE $end
$var parameter 32 3 SPI_CLK_PERIOD $end
$var reg 12 4 adc_data_i [11:0] $end
$var reg 1 5 busy_i $end
$var reg 12 6 cal_offset_i [11:0] $end
$var reg 1 7 clk $end
$var reg 1 8 eoc_i $end
$var reg 12 9 read_data [11:0] $end
$var reg 1 : reset_n $end
$var reg 1 ; spi_cs $end
$var reg 1 < spi_mosi $end
$var reg 1 = spi_sclk $end
$var reg 1 > vref_rdy_i $end
$scope module dut $end
$var wire 12 ? adc_data_i [11:0] $end
$var wire 1 5 busy_i $end
$var wire 12 @ cal_offset_i [11:0] $end
$var wire 1 7 clk $end
$var wire 1 8 eoc_i $end
$var wire 1 : reset_n $end
$var wire 1 A sclk_posedge $end
$var wire 1 ; spi_cs $end
$var wire 1 < spi_mosi $end
$var wire 1 = spi_sclk $end
$var wire 1 > vref_rdy_i $end
$var wire 1 ! vref_sel_o $end
$var wire 1 " start_conv_o $end
$var wire 1 # start_cal_o $end
$var wire 1 $ spi_miso $end
$var wire 1 % int_en_o $end
$var wire 2 B decoded_cmd [1:0] $end
$var wire 2 C decoded_addr [1:0] $end
$var wire 1 ' clk_sel_o $end
$var wire 1 ( auto_mode_o $end
$var wire 1 ) adc_en_o $end
$var parameter 2 D ADDR_CAL $end
$var parameter 2 E ADDR_CTRL $end
$var parameter 2 F ADDR_DATA $end
$var parameter 2 G ADDR_STATUS $end
$var parameter 2 H CMD_CLEAR $end
$var parameter 2 I CMD_READ $end
$var parameter 2 J CMD_SET $end
$var parameter 2 K CMD_WRITE $end
$var parameter 2 L S_EXECUTE $end
$var parameter 2 M S_IDLE $end
$var parameter 2 N S_SHIFT $end
$var reg 12 O cal_offset_reg [11:0] $end
$var reg 12 P ctrl_reg [11:0] $end
$var reg 12 Q data_reg [11:0] $end
$var reg 1 R miso_out_reg $end
$var reg 16 S miso_shift_reg [15:0] $end
$var reg 2 T next_state [1:0] $end
$var reg 1 U sclk_d1 $end
$var reg 1 V sclk_d2 $end
$var reg 1 W sclk_d3 $end
$var reg 16 X spi_shift_reg [15:0] $end
$var reg 2 Y state_reg [1:0] $end
$var reg 12 Z status_info_reg [11:0] $end
$upscope $end
$scope task spi_transaction $end
$var reg 2 [ addr [1:0] $end
$var reg 2 \ cmd [1:0] $end
$var reg 16 ] rx_frame [15:0] $end
$var reg 12 ^ rx_payload [11:0] $end
$var reg 16 _ tx_frame [15:0] $end
$var reg 12 ` tx_payload [11:0] $end
$var integer 32 a i [31:0] $end
$upscope $end
$upscope $end
$enddefinitions $end
$comment Show the parameter values. $end
$dumpall
b1 N
b0 M
b10 L
b1 K
b10 J
b0 I
b11 H
b1 G
b10 F
b0 E
b11 D
b1100100 3
b1 2
b10 1
b0 0
b11 /
b1010 .
b1 -
b10 ,
b0 +
b11 *
$end
#0
$dumpvars
bx a
bx `
bx _
bx ^
bx ]
bx \
bx [
b0 Z
b0 Y
b0 X
0W
0V
0U
b0 T
b0 S
0R
b0 Q
b0 P
b0 O
b0 C
b0 B
0A
b0 @
b0 ?
0>
0=
x<
1;
0:
bx 9
08
07
b0 6
05
b0 4
0)
0(
0'
b0 &
0%
z$
0#
0"
0!
$end
#5000
17
#10000
07
#15000
17
#20000
07
#25000
17
#30000
07
#35000
17
#40000
07
#45000
17
#50000
07
1:
1=
#55000
1U
b100000000 Z
17
#60000
07
#65000
1A
1V
17
#70000
07
#75000
0A
1W
17
#80000
07
#85000
17
#90000
07
#95000
17
#100000
0$
b1 T
07
0<
b0 a
0;
b1000000000000 _
b0 `
b1 [
b0 \
0=
#105000
0U
b1 Y
17
#110000
07
#115000
0V
17
#120000
07
#125000
0W
17
#130000
07
#135000
17
#140000
07
#145000
17
#150000
07
1=
#155000
1U
17
#160000
07
#165000
1A
1V
17
#170000
07
#175000
0A
1W
17
#180000
07
#185000
17
#190000
07
#195000
17
#200000
07
0=
b1 a
b0xxxxxxxxxxxxxxx ]
#205000
0U
17
#210000
07
#215000
0V
17
#220000
07
#225000
0W
17
#230000
07
#235000
17
#240000
07
#245000
17
#250000
07
1=
#255000
1U
17
#260000
07
#265000
1A
1V
17
#270000
07
#275000
0A
1W
17
#280000
07
#285000
17
#290000
07
#295000
17
#300000
07
0=
b10 a
b0xxxxxxxxxxxxxx ]
#305000
0U
17
#310000
07
#315000
0V
17
#320000
07
#325000
0W
17
#330000
07
#335000
17
#340000
07
#345000
17
#350000
07
1=
#355000
1U
17
#360000
07
#365000
1A
1V
17
#370000
07
#375000
0A
1W
17
#380000
07
#385000
17
#390000
07
#395000
17
#400000
07
0=
1<
b11 a
b0xxxxxxxxxxxxx ]
#405000
0U
17
#410000
07
#415000
0V
17
#420000
07
#425000
0W
17
#430000
07
#435000
17
#440000
07
#445000
17
#450000
07
1=
#455000
1U
17
#460000
07
#465000
1A
1V
17
#470000
07
#475000
0A
1W
b1 X
17
#480000
07
#485000
17
#490000
07
#495000
17
#500000
07
0=
0<
b100 a
b0xxxxxxxxxxxx ]
#505000
0U
17
#510000
07
#515000
0V
17
#520000
07
#525000
0W
17
#530000
07
#535000
17
#540000
07
#545000
17
#550000
07
1=
#555000
1U
17
#560000
07
#565000
1A
1V
17
#570000
07
#575000
0A
1W
b10 X
17
#580000
07
#585000
17
#590000
07
#595000
17
#600000
07
0=
b101 a
b0xxxxxxxxxxx ]
#605000
0U
17
#610000
07
#615000
0V
17
#620000
07
#625000
0W
17
#630000
07
#635000
17
#640000
07
#645000
17
#650000
07
1=
#655000
1U
17
#660000
07
#665000
1A
1V
17
#670000
07
#675000
0A
1W
b100 X
17
#680000
07
#685000
17
#690000
07
#695000
17
#700000
07
0=
b110 a
b0xxxxxxxxxx ]
#705000
0U
17
#710000
07
#715000
0V
17
#720000
07
#725000
0W
17
#730000
07
#735000
17
#740000
07
#745000
17
#750000
07
1=
#755000
1U
17
#760000
07
#765000
1A
1V
17
#770000
07
#775000
0A
1W
b1000 X
17
#780000
07
#785000
17
#790000
07
#795000
17
#800000
07
0=
b111 a
b0xxxxxxxxx ]
#805000
0U
17
#810000
07
#815000
0V
17
#820000
07
#825000
0W
17
#830000
07
#835000
17
#840000
07
#845000
17
#850000
07
1=
#855000
1U
17
#860000
07
#865000
1A
1V
17
#870000
07
#875000
0A
1W
b10000 X
17
#880000
07
#885000
17
#890000
07
#895000
17
#900000
07
0=
b1000 a
b0xxxxxxxx ]
#905000
0U
17
#910000
07
#915000
0V
17
#920000
07
#925000
0W
17
#930000
07
#935000
17
#940000
07
#945000
17
#950000
07
1=
#955000
1U
17
#960000
07
#965000
1A
1V
17
#970000
07
#975000
0A
1W
b100000 X
17
#980000
07
#985000
17
#990000
07
#995000
17
#1000000
07
0=
b1001 a
b0xxxxxxx ]
#1005000
0U
17
#1010000
07
#1015000
0V
17
#1020000
07
#1025000
0W
17
#1030000
07
#1035000
17
#1040000
07
#1045000
17
#1050000
07
1=
#1055000
1U
17
#1060000
07
#1065000
1A
1V
17
#1070000
07
#1075000
0A
1W
b1000000 X
17
#1080000
07
#1085000
17
#1090000
07
#1095000
17
#1100000
07
0=
b1010 a
b0xxxxxx ]
#1105000
0U
17
#1110000
07
#1115000
0V
17
#1120000
07
#1125000
0W
17
#1130000
07
#1135000
17
#1140000
07
#1145000
17
#1150000
07
1=
#1155000
1U
17
#1160000
07
#1165000
1A
1V
17
#1170000
07
#1175000
0A
1W
b10000000 X
17
#1180000
07
#1185000
17
#1190000
07
#1195000
17
#1200000
07
0=
b1011 a
b0xxxxx ]
#1205000
0U
17
#1210000
07
#1215000
0V
17
#1220000
07
#1225000
0W
17
#1230000
07
#1235000
17
#1240000
07
#1245000
17
#1250000
07
1=
#1255000
1U
17
#1260000
07
#1265000
1A
1V
17
#1270000
07
#1275000
0A
1W
b100000000 X
17
#1280000
07
#1285000
17
#1290000
07
#1295000
17
#1300000
07
0=
b1100 a
b0xxxx ]
#1305000
0U
17
#1310000
07
#1315000
0V
17
#1320000
07
#1325000
0W
17
#1330000
07
#1335000
17
#1340000
07
#1345000
17
#1350000
07
1=
#1355000
1U
17
#1360000
07
#1365000
1A
1V
17
#1370000
07
#1375000
0A
1W
b1000000000 X
17
#1380000
07
#1385000
17
#1390000
07
#1395000
17
#1400000
07
0=
b1101 a
b0xxx ]
#1405000
0U
17
#1410000
07
#1415000
0V
17
#1420000
07
#1425000
0W
17
#1430000
07
#1435000
17
#1440000
07
#1445000
17
#1450000
07
1=
#1455000
1U
17
#1460000
07
#1465000
1A
1V
17
#1470000
07
#1475000
0A
1W
b10000000000 X
17
#1480000
07
#1485000
17
#1490000
07
#1495000
17
#1500000
07
0=
b1110 a
b0xx ]
#1505000
0U
17
#1510000
07
#1515000
0V
17
#1520000
07
#1525000
0W
17
#1530000
07
#1535000
17
#1540000
07
#1545000
17
#1550000
07
1=
#1555000
1U
17
#1560000
07
#1565000
1A
1V
17
#1570000
07
#1575000
0A
1W
b100000000000 X
17
#1580000
07
#1585000
17
#1590000
07
#1595000
17
#1600000
07
0=
b1111 a
b0x ]
#1605000
0U
17
#1610000
07
#1615000
0V
17
#1620000
07
#1625000
0W
17
#1630000
07
#1635000
17
#1640000
07
#1645000
17
#1650000
07
1=
#1655000
1U
17
#1660000
07
#1665000
1A
1V
17
#1670000
07
#1675000
0A
b1 C
1W
b1000000000000 X
17
#1680000
07
#1685000
17
#1690000
07
#1695000
17
#1700000
z$
b10 T
07
0=
b0 ^
1;
b10000 a
b0 ]
#1705000
b0 T
0U
b10 Y
17
#1710000
07
#1715000
b0 Y
0V
b100000000 S
17
#1720000
07
#1725000
0W
17
#1730000
07
#1735000
17
#1740000
07
#1745000
17
#1750000
07
1=
#1755000
1U
17
#1760000
07
#1765000
1A
1V
17
#1770000
07
#1775000
0A
1W
17
#1780000
07
#1785000
17
#1790000
07
#1795000
17
#1800000
b1000000000 S
0$
b1 T
07
0=
b0 a
0;
b100010110100101 _
b10110100101 `
b0 [
b1 \
b0 9
#1805000
0U
b1 Y
17
#1810000
07
#1815000
0V
17
#1820000
07
#1825000
0W
17
#1830000
07
#1835000
17
#1840000
07
#1845000
17
#1850000
07
1=
#1855000
1U
17
#1860000
07
#1865000
1A
1V
17
#1870000
07
#1875000
0A
b10 C
1W
b10000000000000 X
17
#1880000
07
#1885000
17
#1890000
07
#1895000
17
#1900000
b10000000000 S
07
0=
1<
b1 a
#1905000
0U
17
#1910000
07
#1915000
0V
17
#1920000
07
#1925000
0W
17
#1930000
07
#1935000
17
#1940000
07
#1945000
17
#1950000
07
1=
#1955000
1U
17
#1960000
07
#1965000
1A
1V
17
#1970000
07
#1975000
0A
b1 B
b0 C
1W
b100000000000001 X
17
#1980000
07
#1985000
17
#1990000
07
#1995000
17
#2000000
b100000000000 S
07
0=
0<
b10 a
#2005000
0U
17
#2010000
07
#2015000
0V
17
#2020000
07
#2025000
0W
17
#2030000
07
#2035000
17
#2040000
07
#2045000
17
#2050000
07
1=
#2055000
1U
17
#2060000
07
#2065000
1A
1V
17
#2070000
07
#2075000
0A
b10 B
1W
b1000000000000010 X
17
#2080000
07
#2085000
17
#2090000
07
#2095000
17
#2100000
b1000000000000 S
07
0=
b11 a
#2105000
0U
17
#2110000
07
#2115000
0V
17
#2120000
07
#2125000
0W
17
#2130000
07
#2135000
17
#2140000
07
#2145000
17
#2150000
07
1=
#2155000
1U
17
#2160000
07
#2165000
1A
1V
17
#2170000
07
#2175000
0A
b0 B
1W
b100 X
17
#2180000
07
#2185000
17
#2190000
07
#2195000
17
#2200000
b10000000000000 S
07
0=
b100 a
#2205000
0U
17
#2210000
07
#2215000
0V
17
#2220000
07
#2225000
0W
17
#2230000
07
#2235000
17
#2240000
07
#2245000
17
#2250000
07
1=
#2255000
1U
17
#2260000
07
#2265000
1A
1V
17
#2270000
07
#2275000
0A
1W
b1000 X
17
#2280000
07
#2285000
17
#2290000
07
#2295000
17
#2300000
b100000000000000 S
07
0=
1<
b101 a
#2305000
0U
17
#2310000
07
#2315000
0V
17
#2320000
07
#2325000
0W
17
#2330000
07
#2335000
17
#2340000
07
#2345000
17
#2350000
07
1=
#2355000
1U
17
#2360000
07
#2365000
1A
1V
17
#2370000
07
#2375000
0A
1W
b10001 X
17
#2380000
07
#2385000
17
#2390000
07
#2395000
17
#2400000
b1000000000000000 S
07
0=
0<
b110 a
#2405000
0U
17
#2410000
07
#2415000
0V
17
#2420000
07
#2425000
0W
17
#2430000
07
#2435000
17
#2440000
07
#2445000
17
#2450000
07
1=
#2455000
1U
17
#2460000
07
#2465000
1A
1V
17
#2470000
07
#2475000
0A
1W
b100010 X
17
#2480000
07
#2485000
17
#2490000
07
#2495000
17
#2500000
1$
b0 S
1R
07
0=
1<
b111 a
#2505000
0U
17
#2510000
07
#2515000
0V
17
#2520000
07
#2525000
0W
17
#2530000
07
#2535000
17
#2540000
07
#2545000
17
#2550000
07
1=
#2555000
1U
17
#2560000
07
#2565000
1A
1V
17
#2570000
07
#2575000
0A
1W
b1000101 X
17
#2580000
07
#2585000
17
#2590000
07
#2595000
17
#2600000
0$
0R
07
0=
b1000 a
b100000000 ]
#2605000
0U
17
#2610000
07
#2615000
0V
17
#2620000
07
#2625000
0W
17
#2630000
07
#2635000
17
#2640000
07
#2645000
17
#2650000
07
1=
#2655000
1U
17
#2660000
07
#2665000
1A
1V
17
#2670000
07
#2675000
0A
1W
b10001011 X
17
#2680000
07
#2685000
17
#2690000
07
#2695000
17
#2700000
07
0=
0<
b1001 a
#2705000
0U
17
#2710000
07
#2715000
0V
17
#2720000
07
#2725000
0W
17
#2730000
07
#2735000
17
#2740000
07
#2745000
17
#2750000
07
1=
#2755000
1U
17
#2760000
07
#2765000
1A
1V
17
#2770000
07
#2775000
0A
1W
b100010110 X
17
#2780000
07
#2785000
17
#2790000
07
#2795000
17
#2800000
07
0=
1<
b1010 a
#2805000
0U
17
#2810000
07
#2815000
0V
17
#2820000
07
#2825000
0W
17
#2830000
07
#2835000
17
#2840000
07
#2845000
17
#2850000
07
1=
#2855000
1U
17
#2860000
07
#2865000
1A
1V
17
#2870000
07
#2875000
0A
1W
b1000101101 X
17
#2880000
07
#2885000
17
#2890000
07
#2895000
17
#2900000
07
0=
0<
b1011 a
#2905000
0U
17
#2910000
07
#2915000
0V
17
#2920000
07
#2925000
0W
17
#2930000
07
#2935000
17
#2940000
07
#2945000
17
#2950000
07
1=
#2955000
1U
17
#2960000
07
#2965000
1A
1V
17
#2970000
07
#2975000
0A
1W
b10001011010 X
17
#2980000
07
#2985000
17
#2990000
07
#2995000
17
#3000000
07
0=
b1100 a
#3005000
0U
17
#3010000
07
#3015000
0V
17
#3020000
07
#3025000
0W
17
#3030000
07
#3035000
17
#3040000
07
#3045000
17
#3050000
07
1=
#3055000
1U
17
#3060000
07
#3065000
1A
1V
17
#3070000
07
#3075000
0A
1W
b100010110100 X
17
#3080000
07
#3085000
17
#3090000
07
#3095000
17
#3100000
07
0=
1<
b1101 a
#3105000
0U
17
#3110000
07
#3115000
0V
17
#3120000
07
#3125000
0W
17
#3130000
07
#3135000
17
#3140000
07
#3145000
17
#3150000
07
1=
#3155000
1U
17
#3160000
07
#3165000
1A
1V
17
#3170000
07
#3175000
0A
b1 C
1W
b1000101101001 X
17
#3180000
07
#3185000
17
#3190000
07
#3195000
17
#3200000
07
0=
0<
b1110 a
#3205000
0U
17
#3210000
07
#3215000
0V
17
#3220000
07
#3225000
0W
17
#3230000
07
#3235000
17
#3240000
07
#3245000
17
#3250000
07
1=
#3255000
1U
17
#3260000
07
#3265000
1A
1V
17
#3270000
07
#3275000
0A
b10 C
1W
b10001011010010 X
17
#3280000
07
#3285000
17
#3290000
07
#3295000
17
#3300000
07
0=
1<
b1111 a
#3305000
0U
17
#3310000
07
#3315000
0V
17
#3320000
07
#3325000
0W
17
#3330000
07
#3335000
17
#3340000
07
#3345000
17
#3350000
07
1=
#3355000
1U
17
#3360000
07
#3365000
1A
1V
17
#3370000
07
#3375000
0A
b1 B
b0 C
1W
b100010110100101 X
17
#3380000
07
#3385000
17
#3390000
07
#3395000
17
#3400000
z$
b10 T
07
0=
b100000000 ^
1;
b10000 a
#3405000
b0 T
0U
b10 Y
17
#3410000
07
#3415000
b100101 &
1)
1(
1#
b0 Y
0V
b10110100101 P
17
#3420000
07
#3425000
0W
17
#3430000
07
#3435000
17
#3440000
07
#3445000
17
#3450000
07
1=
#3455000
1U
17
#3460000
07
#3465000
1A
1V
17
#3470000
07
#3475000
0A
1W
17
#3480000
07
#3485000
17
#3490000
07
#3495000
17
#3500000
07
0=
b100000000 9
#3505000
0U
17
#3510000
07
#3515000
0V
17
#3520000
0$
b1 T
07
0<
b0 a
0;
b0 _
b0 `
b0 \
#3525000
0W
b1 Y
17
#3530000
07
#3535000
17
#3540000
07
#3545000
17
#3550000
07
1=
#3555000
1U
17
#3560000
07
#3565000
1A
1V
17
#3570000
07
#3575000
0A
b10 B
1W
b1000101101001010 X
17
#3580000
07
#3585000
17
#3590000
07
#3595000
17
#3600000
07
0=
#3605000
0U
17
#3610000
07
#3615000
0V
17
#3620000
07
b1 a
#3625000
0W
17
#3630000
07
#3635000
17
#3640000
07
#3645000
17
#3650000
07
1=
#3655000
1U
17
#3660000
07
#3665000
1A
1V
17
#3670000
07
#3675000
0A
b0 B
b1 C
1W
b1011010010100 X
17
#3680000
07
#3685000
17
#3690000
07
#3695000
17
#3700000
07
0=
#3705000
0U
17
#3710000
07
#3715000
0V
17
#3720000
07
b10 a
#3725000
0W
17
#3730000
07
#3735000
17
#3740000
07
#3745000
17
#3750000
07
1=
#3755000
1U
17
#3760000
07
#3765000
1A
1V
17
#3770000
07
#3775000
0A
b10 C
1W
b10110100101000 X
17
#3780000
07
#3785000
17
#3790000
07
#3795000
17
#3800000
07
0=
#3805000
0U
17
#3810000
07
#3815000
0V
17
#3820000
07
b11 a
#3825000
0W
17
#3830000
07
#3835000
17
#3840000
07
#3845000
17
#3850000
07
1=
#3855000
1U
17
#3860000
07
#3865000
1A
1V
17
#3870000
07
#3875000
0A
b1 B
b1 C
1W
b101101001010000 X
17
#3880000
07
#3885000
17
#3890000
07
#3895000
17
#3900000
07
0=
#3905000
0U
17
#3910000
07
#3915000
0V
17
#3920000
07
b100 a
#3925000
0W
17
#3930000
07
#3935000
17
#3940000
07
#3945000
17
#3950000
07
1=
#3955000
1U
17
#3960000
07
#3965000
1A
1V
17
#3970000
07
#3975000
0A
b10 B
b11 C
1W
b1011010010100000 X
17
#3980000
07
#3985000
17
#3990000
07
#3995000
17
#4000000
07
0=
#4005000
0U
17
#4010000
07
#4015000
0V
17
#4020000
07
b101 a
#4025000
0W
17
#4030000
07
#4035000
17
#4040000
07
#4045000
17
#4050000
07
1=
#4055000
1U
17
#4060000
07
#4065000
1A
1V
17
#4070000
07
#4075000
0A
b1 B
b10 C
1W
b110100101000000 X
17
#4080000
07
#4085000
17
#4090000
07
#4095000
17
#4100000
07
0=
#4105000
0U
17
#4110000
07
#4115000
0V
17
#4120000
07
b110 a
#4125000
0W
17
#4130000
07
#4135000
17
#4140000
07
#4145000
17
#4150000
07
1=
#4155000
1U
17
#4160000
07
#4165000
1A
1V
17
#4170000
07
#4175000
0A
b11 B
b1 C
1W
b1101001010000000 X
17
#4180000
07
#4185000
17
#4190000
07
#4195000
17
#4200000
07
0=
#4205000
0U
17
#4210000
07
#4215000
0V
17
#4220000
07
b111 a
#4225000
0W
17
#4230000
07
#4235000
17
#4240000
07
#4245000
17
#4250000
07
1=
#4255000
1U
17
#4260000
07
#4265000
1A
1V
17
#4270000
07
#4275000
0A
b10 B
b10 C
1W
b1010010100000000 X
17
#4280000
07
#4285000
17
#4290000
07
#4295000
17
#4300000
07
0=
#4305000
0U
17
#4310000
07
#4315000
0V
17
#4320000
07
b1000 a
b0 ]
#4325000
0W
17
#4330000
07
#4335000
17
#4340000
07
#4345000
17
#4350000
07
1=
#4355000
1U
17
#4360000
07
#4365000
1A
1V
17
#4370000
07
#4375000
0A
b1 B
b0 C
1W
b100101000000000 X
17
#4380000
07
#4385000
17
#4390000
07
#4395000
17
#4400000
07
0=
#4405000
0U
17
#4410000
07
#4415000
0V
17
#4420000
07
b1001 a
#4425000
0W
17
#4430000
07
#4435000
17
#4440000
07
#4445000
17
#4450000
07
1=
#4455000
1U
17
#4460000
07
#4465000
1A
1V
17
#4470000
07
#4475000
0A
b10 B
b1 C
1W
b1001010000000000 X
17
#4480000
07
#4485000
17
#4490000
07
#4495000
17
#4500000
07
0=
#4505000
0U
17
#4510000
07
#4515000
0V
17
#4520000
07
b1010 a
#4525000
0W
17
#4530000
07
#4535000
17
#4540000
07
#4545000
17
#4550000
07
1=
#4555000
1U
17
#4560000
07
#4565000
1A
1V
17
#4570000
07
#4575000
0A
b0 B
b10 C
1W
b10100000000000 X
17
#4580000
07
#4585000
17
#4590000
07
#4595000
17
#4600000
07
0=
#4605000
0U
17
#4610000
07
#4615000
0V
17
#4620000
07
b1011 a
#4625000
0W
17
#4630000
07
#4635000
17
#4640000
07
#4645000
17
#4650000
07
1=
#4655000
1U
17
#4660000
07
#4665000
1A
1V
17
#4670000
07
#4675000
0A
b1 B
b1 C
1W
b101000000000000 X
17
#4680000
07
#4685000
17
#4690000
07
#4695000
17
#4700000
07
0=
#4705000
0U
17
#4710000
07
#4715000
0V
17
#4720000
07
b1100 a
#4725000
0W
17
#4730000
07
#4735000
17
#4740000
07
#4745000
17
#4750000
07
1=
#4755000
1U
17
#4760000
07
#4765000
1A
1V
17
#4770000
07
#4775000
0A
b10 B
b10 C
1W
b1010000000000000 X
17
#4780000
07
#4785000
17
#4790000
07
#4795000
17
#4800000
07
0=
#4805000
0U
17
#4810000
07
#4815000
0V
17
#4820000
07
b1101 a
#4825000
0W
17
#4830000
07
#4835000
17
#4840000
07
#4845000
17
#4850000
07
1=
#4855000
1U
17
#4860000
07
#4865000
1A
1V
17
#4870000
07
#4875000
0A
b1 B
b0 C
1W
b100000000000000 X
17
#4880000
07
#4885000
17
#4890000
07
#4895000
17
#4900000
07
0=
#4905000
0U
17
#4910000
07
#4915000
0V
17
#4920000
07
b1110 a
#4925000
0W
17
#4930000
07
#4935000
17
#4940000
07
#4945000
17
#4950000
07
1=
#4955000
1U
17
#4960000
07
#4965000
1A
1V
17
#4970000
07
#4975000
0A
b10 B
1W
b1000000000000000 X
17
#4980000
07
#4985000
17
#4990000
07
#4995000
17
#5000000
07
0=
#5005000
0U
17
#5010000
07
#5015000
0V
17
#5020000
07
b1111 a
#5025000
0W
17
#5030000
07
#5035000
17
#5040000
07
#5045000
17
#5050000
07
1=
#5055000
1U
17
#5060000
07
#5065000
1A
1V
17
#5070000
07
#5075000
0A
b0 B
1W
b0 X
17
#5080000
07
#5085000
17
#5090000
07
#5095000
17
#5100000
07
0=
#5105000
0U
17
#5110000
07
#5115000
0V
17
#5120000
z$
b10 T
07
b0 ^
1;
b10000 a
#5125000
b0 T
0W
b10 Y
17
#5130000
07
#5135000
b0 Y
b10110100101 S
17
#5140000
07
#5145000
17
#5150000
07
1=
#5155000
1U
17
#5160000
07
#5165000
1A
1V
17
#5170000
07
#5175000
0A
1W
17
#5180000
07
#5185000
17
#5190000
07
#5195000
17
#5200000
07
0=
#5205000
0U
17
#5210000
07
#5215000
0V
17
#5220000
0$
b1 T
07
1<
b0 a
0;
b1000101000001010 _
b101000001010 `
b10 \
b0 9
#5225000
0W
b1 Y
17
#5230000
07
#5235000
17
#5240000
07
#5245000
17
#5250000
07
1=
#5255000
1U
17
#5260000
07
#5265000
1A
1V
17
#5270000
07
#5275000
0A
1W
b1 X
17
#5280000
07
#5285000
17
#5290000
07
#5295000
17
#5300000
b101101001010 S
07
0=
#5305000
0U
17
#5310000
07
#5315000
0V
17
#5320000
07
0<
b1 a
#5325000
0W
17
#5330000
07
#5335000
17
#5340000
07
#5345000
17
#5350000
07
1=
#5355000
1U
17
#5360000
07
#5365000
1A
1V
17
#5370000
07
#5375000
0A
1W
b10 X
17
#5380000
07
#5385000
17
#5390000
07
#5395000
17
#5400000
b1011010010100 S
07
0=
#5405000
0U
17
#5410000
07
#5415000
0V
17
#5420000
07
b10 a
#5425000
0W
17
#5430000
07
#5435000
17
#5440000
07
#5445000
17
#5450000
07
1=
#5455000
1U
17
#5460000
07
#5465000
1A
1V
17
#5470000
07
#5475000
0A
1W
b100 X
17
#5480000
07
#5485000
17
#5490000
07
#5495000
17
#5500000
b10110100101000 S
07
0=
#5505000
0U
17
#5510000
07
#5515000
0V
17
#5520000
07
b11 a
#5525000
0W
17
#5530000
07
#5535000
17
#5540000
07
#5545000
17
#5550000
07
1=
#5555000
1U
17
#5560000
07
#5565000
1A
1V
17
#5570000
07
#5575000
0A
1W
b1000 X
17
#5580000
07
#5585000
17
#5590000
07
#5595000
17
#5600000
b101101001010000 S
07
0=
#5605000
0U
17
#5610000
07
#5615000
0V
17
#5620000
07
1<
b100 a
#5625000
0W
17
#5630000
07
#5635000
17
#5640000
07
#5645000
17
#5650000
07
1=
#5655000
1U
17
#5660000
07
#5665000
1A
1V
17
#5670000
07
#5675000
0A
1W
b10001 X
17
#5680000
07
#5685000
17
#5690000
07
#5695000
17
#5700000
b1011010010100000 S
07
0=
#5705000
0U
17
#5710000
07
#5715000
0V
17
#5720000
07
0<
b101 a
#5725000
0W
17
#5730000
07
#5735000
17
#5740000
07
#5745000
17
#5750000
07
1=
#5755000
1U
17
#5760000
07
#5765000
1A
1V
17
#5770000
07
#5775000
0A
1W
b100010 X
17
#5780000
07
#5785000
17
#5790000
07
#5795000
17
#5800000
1$
b110100101000000 S
1R
07
0=
#5805000
0U
17
#5810000
07
#5815000
0V
17
#5820000
07
1<
b110 a
b10000000000 ]
#5825000
0W
17
#5830000
07
#5835000
17
#5840000
07
#5845000
17
#5850000
07
1=
#5855000
1U
17
#5860000
07
#5865000
1A
1V
17
#5870000
07
#5875000
0A
1W
b1000101 X
17
#5880000
07
#5885000
17
#5890000
07
#5895000
17
#5900000
0$
b1101001010000000 S
0R
07
0=
#5905000
0U
17
#5910000
07
#5915000
0V
17
#5920000
07
0<
b111 a
#5925000
0W
17
#5930000
07
#5935000
17
#5940000
07
#5945000
17
#5950000
07
1=
#5955000
1U
17
#5960000
07
#5965000
1A
1V
17
#5970000
07
#5975000
0A
1W
b10001010 X
17
#5980000
07
#5985000
17
#5990000
07
#5995000
17
#6000000
1$
b1010010100000000 S
1R
07
0=
#6005000
0U
17
#6010000
07
#6015000
0V
17
#6020000
07
b1000 a
b10100000000 ]
#6025000
0W
17
#6030000
07
#6035000
17
#6040000
07
#6045000
17
#6050000
07
1=
#6055000
1U
17
#6060000
07
#6065000
1A
1V
17
#6070000
07
#6075000
0A
1W
b100010100 X
17
#6080000
07
#6085000
17
#6090000
07
#6095000
17
#6100000
b100101000000000 S
07
0=
#6105000
0U
17
#6110000
07
#6115000
0V
17
#6120000
07
b1001 a
b10110000000 ]
#6125000
0W
17
#6130000
07
#6135000
17
#6140000
07
#6145000
17
#6150000
07
1=
#6155000
1U
17
#6160000
07
#6165000
1A
1V
17
#6170000
07
#6175000
0A
1W
b1000101000 X
17
#6180000
07
#6185000
17
#6190000
07
#6195000
17
#6200000
0$
b1001010000000000 S
0R
07
0=
#6205000
0U
17
#6210000
07
#6215000
0V
17
#6220000
07
b1010 a
#6225000
0W
17
#6230000
07
#6235000
17
#6240000
07
#6245000
17
#6250000
07
1=
#6255000
1U
17
#6260000
07
#6265000
1A
1V
17
#6270000
07
#6275000
0A
1W
b10001010000 X
17
#6280000
07
#6285000
17
#6290000
07
#6295000
17
#6300000
1$
b10100000000000 S
1R
07
0=
#6305000
0U
17
#6310000
07
#6315000
0V
17
#6320000
07
b1011 a
b10110100000 ]
#6325000
0W
17
#6330000
07
#6335000
17
#6340000
07
#6345000
17
#6350000
07
1=
#6355000
1U
17
#6360000
07
#6365000
1A
1V
17
#6370000
07
#6375000
0A
1W
b100010100000 X
17
#6380000
07
#6385000
17
#6390000
07
#6395000
17
#6400000
0$
b101000000000000 S
0R
07
0=
#6405000
0U
17
#6410000
07
#6415000
0V
17
#6420000
07
1<
b1100 a
#6425000
0W
17
#6430000
07
#6435000
17
#6440000
07
#6445000
17
#6450000
07
1=
#6455000
1U
17
#6460000
07
#6465000
1A
1V
17
#6470000
07
#6475000
0A
b1 C
1W
b1000101000001 X
17
#6480000
07
#6485000
17
#6490000
07
#6495000
17
#6500000
b1010000000000000 S
07
0=
#6505000
0U
17
#6510000
07
#6515000
0V
17
#6520000
07
0<
b1101 a
#6525000
0W
17
#6530000
07
#6535000
17
#6540000
07
#6545000
17
#6550000
07
1=
#6555000
1U
17
#6560000
07
#6565000
1A
1V
17
#6570000
07
#6575000
0A
b10 C
1W
b10001010000010 X
17
#6580000
07
#6585000
17
#6590000
07
#6595000
17
#6600000
1$
b100000000000000 S
1R
07
0=
#6605000
0U
17
#6610000
07
#6615000
0V
17
#6620000
07
1<
b1110 a
b10110100100 ]
