iverilog/wave_files/soc_test.vcd
$date
	Fri Dec  5 21:26:27 2025
$end
$version
	Icarus Verilog
$end
$timescale
	1ps
$end
$scope module tb_soc_basic $end
$var wire 1 ! trap $end
$var reg 1 " clk $end
$var reg 1 # resetn $end
$scope function read_ram_word $end
$var reg 32 $ addr [31:0] $end
$upscope $end
$scope module uut $end
$var wire 1 " clk $end
$var wire 1 # resetn $end
$var wire 1 ! trap $end
$var wire 4 % mem_wstrb [3:0] $end
$var wire 32 & mem_wdata [31:0] $end
$var wire 1 ' mem_valid $end
$var wire 1 ( mem_ready $end
$var wire 1 ) mem_instr $end
$var wire 32 * mem_addr [31:0] $end
$var reg 32 + mem_rdata [31:0] $end
$var reg 1 ( mem_ready_reg $end
$var integer 32 , i [31:0] $end
$scope module cpu $end
$var wire 1 " clk $end
$var wire 32 - dbg_mem_addr [31:0] $end
$var wire 1 . dbg_mem_instr $end
$var wire 32 / dbg_mem_rdata [31:0] $end
$var wire 1 0 dbg_mem_ready $end
$var wire 1 1 dbg_mem_valid $end
$var wire 32 2 dbg_mem_wdata [31:0] $end
$var wire 4 3 dbg_mem_wstrb [3:0] $end
$var wire 1 4 instr_trap $end
$var wire 32 5 irq [31:0] $end
$var wire 1 6 launch_next_insn $end
$var wire 1 7 mem_done $end
$var wire 1 8 mem_la_firstword $end
$var wire 1 9 mem_la_firstword_xfer $end
$var wire 1 : mem_la_read $end
$var wire 1 ; mem_la_use_prefetched_high_word $end
$var wire 1 < mem_la_write $end
$var wire 32 = mem_rdata [31:0] $end
$var wire 32 > mem_rdata_latched [31:0] $end
$var wire 1 ( mem_ready $end
$var wire 1 ? mem_xfer $end
$var wire 32 @ pcpi_div_rd [31:0] $end
$var wire 1 A pcpi_div_ready $end
$var wire 1 B pcpi_div_wait $end
$var wire 1 C pcpi_div_wr $end
$var wire 32 D pcpi_mul_rd [31:0] $end
$var wire 1 E pcpi_mul_ready $end
$var wire 1 F pcpi_mul_wait $end
$var wire 1 G pcpi_mul_wr $end
$var wire 32 H pcpi_rd [31:0] $end
$var wire 1 I pcpi_ready $end
$var wire 32 J pcpi_rs1 [31:0] $end
$var wire 32 K pcpi_rs2 [31:0] $end
$var wire 1 L pcpi_wait $end
$var wire 1 M pcpi_wr $end
$var wire 1 # resetn $end
$var wire 32 N next_pc [31:0] $end
$var wire 32 O mem_rdata_latched_noshuffle [31:0] $end
$var wire 32 P mem_la_addr [31:0] $end
$var wire 1 Q mem_busy $end
$var wire 1 R is_rdcycle_rdcycleh_rdinstr_rdinstrh $end
$var parameter 1 S BARREL_SHIFTER $end
$var parameter 1 T CATCH_ILLINSN $end
$var parameter 1 U CATCH_MISALIGN $end
$var parameter 1 V COMPRESSED_ISA $end
$var parameter 1 W ENABLE_COUNTERS $end
$var parameter 1 X ENABLE_COUNTERS64 $end
$var parameter 1 Y ENABLE_DIV $end
$var parameter 1 Z ENABLE_FAST_MUL $end
$var parameter 1 [ ENABLE_IRQ $end
$var parameter 1 \ ENABLE_IRQ_QREGS $end
$var parameter 1 ] ENABLE_IRQ_TIMER $end
$var parameter 1 ^ ENABLE_MUL $end
$var parameter 1 _ ENABLE_PCPI $end
$var parameter 1 ` ENABLE_REGS_16_31 $end
$var parameter 1 a ENABLE_REGS_DUALPORT $end
$var parameter 1 b ENABLE_TRACE $end
$var parameter 32 c LATCHED_IRQ $end
$var parameter 1 d LATCHED_MEM_RDATA $end
$var parameter 32 e MASKED_IRQ $end
$var parameter 32 f PROGADDR_IRQ $end
$var parameter 32 g PROGADDR_RESET $end
$var parameter 1 h REGS_INIT_ZERO $end
$var parameter 32 i STACKADDR $end
$var parameter 36 j TRACE_ADDR $end
$var parameter 36 k TRACE_BRANCH $end
$var parameter 36 l TRACE_IRQ $end
$var parameter 1 m TWO_CYCLE_ALU $end
$var parameter 1 n TWO_CYCLE_COMPARE $end
$var parameter 1 o TWO_STAGE_SHIFT $end
$var parameter 1 p WITH_PCPI $end
$var parameter 8 q cpu_state_exec $end
$var parameter 8 r cpu_state_fetch $end
$var parameter 8 s cpu_state_ld_rs1 $end
$var parameter 8 t cpu_state_ld_rs2 $end
$var parameter 8 u cpu_state_ldmem $end
$var parameter 8 v cpu_state_shift $end
$var parameter 8 w cpu_state_stmem $end
$var parameter 8 x cpu_state_trap $end
$var parameter 32 y irq_buserror $end
$var parameter 32 z irq_ebreak $end
$var parameter 32 { irq_timer $end
$var parameter 32 | irqregs_offset $end
$var parameter 32 } regfile_size $end
$var parameter 32 ~ regindex_bits $end
$var reg 32 !" alu_add_sub [31:0] $end
$var reg 1 "" alu_eq $end
$var reg 1 #" alu_lts $end
$var reg 1 $" alu_ltu $end
$var reg 32 %" alu_out [31:0] $end
$var reg 1 &" alu_out_0 $end
$var reg 1 '" alu_out_0_q $end
$var reg 32 (" alu_out_q [31:0] $end
$var reg 32 )" alu_shl [31:0] $end
$var reg 32 *" alu_shr [31:0] $end
$var reg 1 +" alu_wait $end
$var reg 1 ," alu_wait_2 $end
$var reg 64 -" cached_ascii_instr [63:0] $end
$var reg 32 ." cached_insn_imm [31:0] $end
$var reg 32 /" cached_insn_opcode [31:0] $end
$var reg 5 0" cached_insn_rd [4:0] $end
$var reg 5 1" cached_insn_rs1 [4:0] $end
$var reg 5 2" cached_insn_rs2 [4:0] $end
$var reg 1 3" clear_prefetched_high_word $end
$var reg 1 4" clear_prefetched_high_word_q $end
$var reg 1 5" compressed_instr $end
$var reg 64 6" count_cycle [63:0] $end
$var reg 64 7" count_instr [63:0] $end
$var reg 8 8" cpu_state [7:0] $end
$var reg 32 9" cpuregs_rs1 [31:0] $end
$var reg 32 :" cpuregs_rs2 [31:0] $end
$var reg 32 ;" cpuregs_wrdata [31:0] $end
$var reg 1 <" cpuregs_write $end
$var reg 32 =" current_pc [31:0] $end
$var reg 64 >" dbg_ascii_instr [63:0] $end
$var reg 128 ?" dbg_ascii_state [127:0] $end
$var reg 32 @" dbg_insn_addr [31:0] $end
$var reg 32 A" dbg_insn_imm [31:0] $end
$var reg 32 B" dbg_insn_opcode [31:0] $end
$var reg 5 C" dbg_insn_rd [4:0] $end
$var reg 5 D" dbg_insn_rs1 [4:0] $end
$var reg 5 E" dbg_insn_rs2 [4:0] $end
$var reg 1 F" dbg_next $end
$var reg 32 G" dbg_rs1val [31:0] $end
$var reg 1 H" dbg_rs1val_valid $end
$var reg 32 I" dbg_rs2val [31:0] $end
$var reg 1 J" dbg_rs2val_valid $end
$var reg 1 K" dbg_valid_insn $end
$var reg 32 L" decoded_imm [31:0] $end
$var reg 32 M" decoded_imm_j [31:0] $end
$var reg 5 N" decoded_rd [4:0] $end
$var reg 5 O" decoded_rs [4:0] $end
$var reg 5 P" decoded_rs1 [4:0] $end
$var reg 5 Q" decoded_rs2 [4:0] $end
$var reg 1 R" decoder_pseudo_trigger $end
$var reg 1 S" decoder_pseudo_trigger_q $end
$var reg 1 T" decoder_trigger $end
$var reg 1 U" decoder_trigger_q $end
$var reg 1 V" do_waitirq $end
$var reg 32 W" eoi [31:0] $end
$var reg 1 X" instr_add $end
$var reg 1 Y" instr_addi $end
$var reg 1 Z" instr_and $end
$var reg 1 [" instr_andi $end
$var reg 1 \" instr_auipc $end
$var reg 1 ]" instr_beq $end
$var reg 1 ^" instr_bge $end
$var reg 1 _" instr_bgeu $end
$var reg 1 `" instr_blt $end
$var reg 1 a" instr_bltu $end
$var reg 1 b" instr_bne $end
$var reg 1 c" instr_ecall_ebreak $end
$var reg 1 d" instr_fence $end
$var reg 1 e" instr_getq $end
$var reg 1 f" instr_jal $end
$var reg 1 g" instr_jalr $end
$var reg 1 h" instr_lb $end
$var reg 1 i" instr_lbu $end
$var reg 1 j" instr_lh $end
$var reg 1 k" instr_lhu $end
$var reg 1 l" instr_lui $end
$var reg 1 m" instr_lw $end
$var reg 1 n" instr_maskirq $end
$var reg 1 o" instr_or $end
$var reg 1 p" instr_ori $end
$var reg 1 q" instr_rdcycle $end
$var reg 1 r" instr_rdcycleh $end
$var reg 1 s" instr_rdinstr $end
$var reg 1 t" instr_rdinstrh $end
$var reg 1 u" instr_retirq $end
$var reg 1 v" instr_sb $end
$var reg 1 w" instr_setq $end
$var reg 1 x" instr_sh $end
$var reg 1 y" instr_sll $end
$var reg 1 z" instr_slli $end
$var reg 1 {" instr_slt $end
$var reg 1 |" instr_slti $end
$var reg 1 }" instr_sltiu $end
$var reg 1 ~" instr_sltu $end
$var reg 1 !# instr_sra $end
$var reg 1 "# instr_srai $end
$var reg 1 ## instr_srl $end
$var reg 1 $# instr_srli $end
$var reg 1 %# instr_sub $end
$var reg 1 &# instr_sw $end
$var reg 1 '# instr_timer $end
$var reg 1 (# instr_waitirq $end
$var reg 1 )# instr_xor $end
$var reg 1 *# instr_xori $end
$var reg 1 +# irq_active $end
$var reg 1 ,# irq_delay $end
$var reg 32 -# irq_mask [31:0] $end
$var reg 32 .# irq_pending [31:0] $end
$var reg 2 /# irq_state [1:0] $end
$var reg 1 0# is_alu_reg_imm $end
$var reg 1 1# is_alu_reg_reg $end
$var reg 1 2# is_beq_bne_blt_bge_bltu_bgeu $end
$var reg 1 3# is_compare $end
$var reg 1 4# is_jalr_addi_slti_sltiu_xori_ori_andi $end
$var reg 1 5# is_lb_lh_lw_lbu_lhu $end
$var reg 1 6# is_lbu_lhu_lw $end
$var reg 1 7# is_lui_auipc_jal $end
$var reg 1 8# is_lui_auipc_jal_jalr_addi_add_sub $end
$var reg 1 9# is_sb_sh_sw $end
$var reg 1 :# is_sll_srl_sra $end
$var reg 1 ;# is_slli_srli_srai $end
$var reg 1 <# is_slti_blt_slt $end
$var reg 1 =# is_sltiu_bltu_sltu $end
$var reg 1 ># last_mem_valid $end
$var reg 1 ?# latched_branch $end
$var reg 1 @# latched_compr $end
$var reg 1 A# latched_is_lb $end
$var reg 1 B# latched_is_lh $end
$var reg 1 C# latched_is_lu $end
$var reg 5 D# latched_rd [4:0] $end
$var reg 1 E# latched_stalu $end
$var reg 1 F# latched_store $end
$var reg 1 G# latched_trace $end
$var reg 32 H# mem_addr [31:0] $end
$var reg 1 I# mem_do_prefetch $end
$var reg 1 J# mem_do_rdata $end
$var reg 1 K# mem_do_rinst $end
$var reg 1 L# mem_do_wdata $end
$var reg 1 ) mem_instr $end
$var reg 1 M# mem_la_firstword_reg $end
$var reg 1 N# mem_la_secondword $end
$var reg 32 O# mem_la_wdata [31:0] $end
$var reg 4 P# mem_la_wstrb [3:0] $end
$var reg 32 Q# mem_rdata_q [31:0] $end
$var reg 32 R# mem_rdata_word [31:0] $end
$var reg 2 S# mem_state [1:0] $end
$var reg 1 ' mem_valid $end
$var reg 32 T# mem_wdata [31:0] $end
$var reg 2 U# mem_wordsize [1:0] $end
$var reg 4 V# mem_wstrb [3:0] $end
$var reg 64 W# new_ascii_instr [63:0] $end
$var reg 32 X# next_insn_opcode [31:0] $end
$var reg 32 Y# next_irq_pending [31:0] $end
$var reg 32 Z# pcpi_insn [31:0] $end
$var reg 32 [# pcpi_int_rd [31:0] $end
$var reg 1 \# pcpi_int_ready $end
$var reg 1 ]# pcpi_int_wait $end
$var reg 1 ^# pcpi_int_wr $end
$var reg 1 _# pcpi_timeout $end
$var reg 1 `# pcpi_valid $end
$var reg 1 a# prefetched_high_word $end
$var reg 64 b# q_ascii_instr [63:0] $end
$var reg 32 c# q_insn_imm [31:0] $end
$var reg 32 d# q_insn_opcode [31:0] $end
$var reg 5 e# q_insn_rd [4:0] $end
$var reg 5 f# q_insn_rs1 [4:0] $end
$var reg 5 g# q_insn_rs2 [4:0] $end
$var reg 32 h# reg_next_pc [31:0] $end
$var reg 32 i# reg_op1 [31:0] $end
$var reg 32 j# reg_op2 [31:0] $end
$var reg 32 k# reg_out [31:0] $end
$var reg 32 l# reg_pc [31:0] $end
$var reg 5 m# reg_sh [4:0] $end
$var reg 1 n# set_mem_do_rdata $end
$var reg 1 o# set_mem_do_rinst $end
$var reg 1 p# set_mem_do_wdata $end
$var reg 32 q# timer [31:0] $end
$var reg 36 r# trace_data [35:0] $end
$var reg 1 s# trace_valid $end
$var reg 1 ! trap $end
$scope begin genblk1 $end
$upscope $end
$scope begin genblk2 $end
$upscope $end
$scope begin genblk3 $end
$upscope $end
$scope task empty_statement $end
$upscope $end
$upscope $end
$upscope $end
$upscope $end
$enddefinitions $end
$comment Show the parameter values. $end
$dumpall
b101 ~
b100000 }
b100000 |
b0 {
b1 z
b10 y
b10000000 x
b10 w
b100 v
b1 u
b10000 t
b100000 s
b1000000 r
b1000 q
0p
1o
0n
0m
b100000000000000000000000000000000000 l
b100000000000000000000000000000000 k
b1000000000000000000000000000000000 j
b100000000000000 i
0h
b0 g
b10000 f
b0 e
0d
b11111111111111111111111111111111 c
0b
1a
1`
0_
0^
1]
1\
0[
0Z
0Y
1X
1W
0V
1U
1T
0S
$end
#0
$dumpvars
xs#
bx r#
bx q#
xp#
xo#
xn#
bx m#
bx l#
bx k#
bx j#
bx i#
bx h#
bx g#
bx f#
bx e#
bx d#
bx c#
bx b#
xa#
x`#
x_#
0^#
0]#
0\#
bx [#
bx Z#
bx Y#
bx X#
bx W#
bx V#
bx U#
bx T#
bx S#
bx R#
bx Q#
bx P#
bx O#
xN#
xM#
xL#
xK#
xJ#
xI#
bx H#
xG#
xF#
xE#
bx D#
xC#
xB#
xA#
x@#
x?#
x>#
x=#
x<#
x;#
x:#
x9#
x8#
x7#
x6#
x5#
x4#
x3#
x2#
x1#
x0#
bx /#
bx .#
bx -#
x,#
x+#
x*#
x)#
x(#
x'#
x&#
x%#
x$#
x##
x"#
x!#
x~"
x}"
x|"
x{"
xz"
xy"
xx"
xw"
xv"
xu"
xt"
xs"
xr"
xq"
xp"
xo"
xn"
xm"
xl"
xk"
xj"
xi"
xh"
xg"
xf"
xe"
xd"
xc"
xb"
xa"
x`"
x_"
x^"
x]"
x\"
x["
xZ"
xY"
xX"
bx W"
xV"
xU"
xT"
xS"
xR"
bx Q"
bx P"
bx O"
bx N"
bx M"
bx L"
xK"
xJ"
bx I"
xH"
bx G"
xF"
bx E"
bx D"
bx C"
bx B"
bx A"
bx @"
bx ?"
bx >"
bx ="
x<"
bx ;"
bx :"
bx 9"
bx 8"
bx 7"
bx 6"
x5"
x4"
03"
bx 2"
bx 1"
bx 0"
bx /"
bx ."
bx -"
x,"
x+"
bx *"
bx )"
bx ("
x'"
x&"
bx %"
x$"
x#"
x""
bx !"
xR
xQ
bx00 P
bx O
bx N
zM
zL
bx K
bx J
zI
bz H
0G
0F
0E
bx D
0C
0B
0A
bx @
x?
bx >
bx =
0<
0;
0:
09
08
07
x6
bz 5
x4
bx 3
bx 2
x1
x0
bx /
x.
bx -
b100000000000000 ,
bx +
bx *
x)
x(
x'
bx &
bx %
bx $
0#
0"
x!
$end
#10000
06
0?
b0 W#
0Q
b110011001100101011101000110001101101000 ?"
b0 N
b100000000000000 ;"
1<"
0>#
0M#
0a#
0N#
01
0'
b0 S#
0K"
0d"
0Z"
0o"
0!#
0##
0)#
0~"
0{"
0y"
0%#
0X"
0["
0p"
0*#
0}"
0|"
0Y"
0_"
0a"
0^"
0`"
0b"
0]"
03#
02#
04"
b0 .#
0L#
0J#
0K#
0I#
b1000000 8"
b100000000000000 k#
b10 D#
b0 q#
b0 W"
b0 /#
b11111111111111111111111111111111 -#
0,#
0+#
0_#
0`#
0A#
0B#
0C#
0G#
0?#
0E#
1F#
b0 7"
b0 h#
b0 l#
0s#
0V"
0R"
0T"
b0 6"
0,"
0+"
0!
00
0(
b0 Y#
0p#
0n#
0o#
1"
#20000
0"
#30000
b100000000000000 ;"
1<"
1F#
0S"
0U"
b100000000000000 k#
0=#
0<#
0F"
b0 Y#
1"
#40000
0"
#50000
b100000000000000 ;"
1<"
1F#
b100000000000000 k#
b0 Y#
1"
#60000
0"
#70000
b100000000000000 ;"
1<"
1F#
b100000000000000 k#
b0 Y#
1"
#80000
0"
#90000
b100000000000000 ;"
1<"
1F#
b100000000000000 k#
b0 Y#
1"
#100000
0"
#110000
b100000000000000 ;"
1<"
1F#
b100000000000000 k#
b0 Y#
1"
#120000
0"
#130000
b100000000000000 ;"
1<"
1F#
b100000000000000 k#
b0 Y#
1"
#140000
0"
#150000
b100000000000000 ;"
1<"
1F#
b100000000000000 k#
b0 Y#
1"
#160000
0"
#170000
b100000000000000 ;"
1<"
1F#
b100000000000000 k#
b0 Y#
1"
#180000
0"
#190000
b100000000000000 ;"
1<"
1F#
b100000000000000 k#
b0 Y#
1"
#200000
0"
1#
#210000
1:
b0 P
b1111 P#
1Q
bx ;"
0<"
bx .#
bx D#
0F#
b0 U#
1K#
b1 6"
bx k#
bx ="
bx Y#
1"
#220000
0"
#230000
0:
b10 6"
b1 S#
1.
1)
11
1'
b0 3
b0 %
b0 V#
b0 -
b0 *
b0 H#
bx ="
1"
#240000
0"
#250000
17
b100000100110111 >
b100000100110111 O
1?
b100000100110111 R#
1>#
b11 6"
b100000100110111 /
b100000100110111 +
b100000100110111 =
10
1(
bx ="
1"
#260000
0"
#270000
07
04
0?
bx00 P
16
0Q
b0 :"
b0 9"
b11011000111010101101001 W#
b0 S#
01
0'
00
0(
0K#
1T"
b100 6"
05"
b0 Q"
b0 P"
b10 N"
b100000000000000 M"
01#
00#
09#
05#
0(#
0u"
0g"
0f"
0\"
1l"
b100000100110111 X#
b100000100110111 Q#
0>#
bx ="
1"
#280000
0"
#290000
1:
b100 P
06
b10 C"
b0 E"
b0 D"
b100000000000000 A"
b100000100110111 B"
b11011000111010101101001 >"
0R
b11011000111010101101001 W#
b11011000110010001011111011100100111001100110001 ?"
1Q
b100 N
b0 @"
1K"
1F"
b100000000000000 L"
0:#
04#
0;#
0'#
0n"
0w"
0e"
0c"
0t"
0s"
0r"
0q"
0"#
0$#
0z"
0&#
0x"
0v"
0k"
0i"
0m"
0j"
0h"
08#
17#
b100000 8"
1I#
b1 7"
b100 h#
0@#
b10 D#
1U"
0T"
b101 6"
0J"
0H"
bx ="
1"
#300000
0"
#310000
0:
b100000000000000 %"
b1100101011110000110010101100011 ?"
b100000000000000 O#
b0 *"
b0 )"
1$"
1#"
0""
b100000000000000 !"
b1 S#
11
1'
b100 -
b100 *
b100 H#
b1000 8"
1K#
b100000000000000 K
b100000000000000 j#
b0 J
b0 i#
0U"
b110 6"
06#
18#
b10 0"
b0 2"
b0 1"
b100000100110111 /"
b100000000000000 ."
b11011000111010101101001 -"
0F"
b10 e#
b0 g#
b0 f#
b100000100110111 d#
b100000000000000 c#
b11011000111010101101001 b#
1"
#320000
0"
#330000
17
b100000000000000011101111 >
b100000000000000011101111 O
1?
b110011001100101011101000110001101101000 ?"
1<"
b100000000000000 ;"
b100000000000000011101111 R#
1>#
b1000000 8"
1E#
1F#
b100000000000000 k#
b111 6"
b100000000000000 ("
b100000000000000011101111 /
b100000000000000011101111 +
b100000000000000011101111 =
10
1(
1"
#340000
0"
#350000
07
0?
b0 P
16
0Q
bx ;"
0<"
bx :"
b11010100110000101101100 W#
b0 S#
01
0'
00
0(
0K#
0I#
0E#
0F#
b100 l#
1T"
b1000 6"
bx k#
b1000 Q"
b1 N"
b1000 M"
1f"
0l"
b100000000000000011101111 X#
b100000000000000011101111 Q#
0>#
bx ="
1"
#360000
0"
#370000
1:
b1100 P
06
b1 C"
b1000 E"
b1000 A"
b100000000000000011101111 B"
b11010100110000101101100 >"
bx %"
1Q
1<"
b1000 ;"
b1100 N
b100 @"
1F"
b1000 L"
08#
1?#
1K#
b10 7"
b1100 h#
b1 D#
1U"
0T"
b1001 6"
bx ="
1"
#380000
0"
#390000
0:
bx ;"
0<"
b100000000000000 %"
b1 S#
11
1'
b1100 -
b1100 *
b1100 H#
0?#
b1100 l#
0U"
b1010 6"
bx ("
18#
b1 0"
b1000 2"
b100000000000000011101111 /"
b1000 ."
b11010100110000101101100 -"
0F"
b1 e#
b1000 g#
b100000000000000011101111 d#
b1000 c#
b11010100110000101101100 b#
bx ="
1"
#400000
0"
#410000
17
b11111110000000010000000100010011 >
b11111110000000010000000100010011 O
1?
b11111110000000010000000100010011 R#
1>#
b1011 6"
b100000000000000 ("
b11111110000000010000000100010011 /
b11111110000000010000000100010011 +
b11111110000000010000000100010011 =
10
1(
bx ="
1"
#420000
0"
#430000
07
14
0?
b0 P
16
0Q
b0 :"
b100000000000000 9"
b0 W#
b0 S#
01
0'
00
0(
0K#
1T"
b1100 6"
b0 Q"
b10 P"
b10 N"
b11111111111100010000011111100000 M"
10#
0f"
b11111110000000010000000100010011 X#
b11111110000000010000000100010011 Q#
0>#
bx ="
1"
#440000
0"
#450000
1:
04
b10000 P
06
b10 C"
b0 E"
b10 D"
b11111111111111111111111111100000 A"
b11111110000000010000000100010011 B"
b1100001011001000110010001101001 >"
b1100001011001000110010001101001 W#
bx %"
b11011000110010001011111011100100111001100110001 ?"
1Q
b10000 N
b1100 @"
1F"
b11111111111111111111111111100000 L"
14#
1Y"
08#
07#
b100000 8"
1I#
b11 7"
b10000 h#
b10 D#
1U"
0T"
b1101 6"
bx ="
1"
#460000
0"
#470000
0:
b1100101011110000110010101100011 ?"
b11111111111111111111111111100000 O#
b100000000000000 *"
b100000000000000 )"
0#"
b11111111100000 !"
b11111111100000 %"
b1 S#
11
1'
b10000 -
b10000 *
b10000 H#
b1000 8"
1K#
1H"
b100000000000000 G"
b11111111111111111111111111100000 K
b11111111111111111111111111100000 j#
b100000000000000 J
b100000000000000 i#
0U"
b1110 6"
bx ("
18#
b10 0"
b0 2"
b10 1"
b11111110000000010000000100010011 /"
b11111111111111111111111111100000 ."
b1100001011001000110010001101001 -"
0F"
b10 e#
b0 g#
b10 f#
b11111110000000010000000100010011 d#
b11111111111111111111111111100000 c#
b1100001011001000110010001101001 b#
1"
#480000
0"
#490000
17
b100000010010111000100011 >
b100000010010111000100011 O
1?
b110011001100101011101000110001101101000 ?"
1<"
b11111111100000 ;"
b100000010010111000100011 R#
1>#
b1000000 8"
1E#
1F#
b11111111111111111111111111101100 k#
b1111 6"
b11111111100000 ("
b100000010010111000100011 /
b100000010010111000100011 +
b100000010010111000100011 =
10
1(
1"
#500000
0"
#510000
07
0?
b100000000000000 P
16
0Q
bx ;"
0<"
bx :"
b11111111100000 9"
b0 S#
01
0'
00
0(
0K#
0I#
0E#
0F#
b10000 l#
1T"
b10000 6"
bx k#
b1000 Q"
b11100 N"
b10010000000001000 M"
00#
19#
b100000010010111000100011 X#
b100000010010111000100011 Q#
0>#
bx ="
1"
#520000
0"
#530000
1:
b10100 P
06
b11100 C"
b1000 E"
b11100 A"
b100000010010111000100011 B"
b111001101110111 >"
bx %"
b111001101110111 W#
b11011000110010001011111011100100111001100110001 ?"
1Q
b10100 N
b10000 @"
1F"
b11100 L"
08#
04#
0Y"
1&#
b100000 8"
1I#
b100 7"
b10100 h#
b11100 D#
1U"
0T"
b10001 6"
0H"
bx G"
bx ="
1"
#540000
0"
#550000
0:
b111001101110100011011010110010101101101 ?"
bx O#
bx *"
bx )"
x$"
x#"
x""
bx !"
b1 S#
11
1'
b10100 -
b10100 *
b10100 H#
1K#
b10 8"
1J"
1H"
b11111111100000 G"
bx K
bx j#
b11111111100000 J
b11111111100000 i#
0U"
b10010 6"
bx ("
b11100 0"
b1000 2"
b100000010010111000100011 /"
b11100 ."
b111001101110111 -"
0F"
b11100 e#
b1000 g#
b100000010010111000100011 d#
b11100 c#
b111001101110111 b#
1"
#560000
0"
#570000
17
b10000000010000010000010011 >
b10000000010000010000010011 O
1?
b10000000010000010000010011 R#
1>#
b10011 6"
b10000000010000010000010011 /
b10000000010000010000010011 +
b10000000010000010000010011 =
10
1(
1"
#580000
0"
#590000
07
1<
0?
b11111111111100 P
b0 :"
b0 S#
01
0'
00
0(
1L#
0K#
0I#
b11111111111100 J
b11111111111100 i#
1T"
b10100 6"
b0 Q"
b1000 N"
b10000000000100000 M"
10#
09#
b10000000010000010000010011 X#
b10000000010000010000010011 Q#
0>#
1p#
1"
#600000
0"
#610000
0<
b1100001011001000110010001101001 W#
b100000 L"
14#
1Y"
0&#
1U"
0T"
b10101 6"
b10 S#
0.
0)
11
1'
b1111 3
b1111 %
b1111 V#
b11111111111100 -
b11111111111100 *
b11111111111100 H#
0p#
1"
#620000
0"
#630000
17
b0 >
b0 O
1?
b0 R#
b0 /
b0 +
b0 =
10
1(
0U"
b10110 6"
18#
b1000 0"
b0 2"
b10000000010000010000010011 /"
b100000 ."
b1100001011001000110010001101001 -"
1>#
1"
#640000
0"
#650000
07
16
0?
0Q
b110011001100101011101000110001101101000 ?"
b0 S#
01
0'
0>#
b0 X#
b0 Q#
0L#
1R"
1T"
b1000000 8"
b10111 6"
00
0(
1"
#660000
0"
#670000
1:
b11000 P
06
b11011000110010001011111011100100111001100110001 ?"
1Q
b11000 N
b1000 C"
b0 E"
b10000000010000010000010011 B"
b100000 A"
b1100001011001000110010001101001 >"
b100000 8"
1I#
b101 7"
b11000 h#
b1000 D#
b10100 l#
1S"
0R"
1U"
0T"
b11000 6"
0J"
0H"
bx G"
b10100 @"
1F"
bx ="
1"
#680000
0"
#690000
0:
b1100101011110000110010101100011 ?"
b100000000000000 %"
b100000 O#
b11111111100000 *"
b11111111100000 )"
0$"
0#"
0""
b100000000000000 !"
b1 S#
1.
1)
11
1'
b0 3
b0 %
b0 V#
b11000 -
b11000 *
b11000 H#
b0 /"
0F"
b1000 e#
b0 g#
b10000000010000010000010011 d#
b100000 c#
b1100001011001000110010001101001 b#
b1000 8"
1K#
b100000 K
b100000 j#
1H"
b11111111100000 G"
b11111111100000 J
b11111111100000 i#
0S"
0U"
b11001 6"
1"
#700000
0"
#710000
17
b101000000000011110010011 >
b101000000000011110010011 O
1?
b101000000000011110010011 R#
b110011001100101011101000110001101101000 ?"
1<"
b100000000000000 ;"
b101000000000011110010011 /
b101000000000011110010011 +
b101000000000011110010011 =
10
1(
b1000000 8"
1E#
1F#
b110100 k#
b11010 6"
b100000000000000 ("
1>#
1"
#720000
0"
#730000
07
b11111111100000 P
16
0?
bx :"
b0 9"
0Q
bx ;"
0<"
b0 S#
01
0'
0>#
b101000000000011110010011 X#
b101000000000011110010011 Q#
b1010 Q"
b0 P"
b1111 N"
b1010 M"
0K#
0I#
0E#
0F#
b11000 l#
1T"
b11011 6"
bx k#
00
0(
bx ="
1"
#740000
0"
#750000
1:
b11100 P
06
b11011000110010001011111011100100111001100110001 ?"
1Q
b11100 N
bx %"
b1111 C"
b1010 E"
b0 D"
b1010 A"
b101000000000011110010011 B"
b100000 8"
1I#
b110 7"
b11100 h#
b1111 D#
1U"
0T"
b11100 6"
0H"
bx G"
b1010 L"
08#
b11000 @"
1F"
bx ="
1"
#760000
0"
#770000
0:
b1100101011110000110010101100011 ?"
b1010 %"
b1010 O#
b0 *"
b0 )"
1$"
1#"
b1010 !"
b1 S#
11
1'
b11100 -
b11100 *
b11100 H#
b1111 0"
b1010 2"
b0 1"
b101000000000011110010011 /"
b1010 ."
0F"
b1111 e#
b1010 g#
b0 f#
b101000000000011110010011 d#
b1010 c#
18#
b1000 8"
1K#
1H"
b0 G"
b1010 K
b1010 j#
b0 J
b0 i#
0U"
b11101 6"
bx ("
1"
#780000
0"
#790000
17
b11111110111101000010011000100011 >
b11111110111101000010011000100011 O
1?
b11111110111101000010011000100011 R#
b110011001100101011101000110001101101000 ?"
1<"
b1010 ;"
b11111110111101000010011000100011 /
b11111110111101000010011000100011 +
b11111110111101000010011000100011 =
10
1(
b1000000 8"
1E#
1F#
b100010 k#
b11110 6"
b1010 ("
1>#
1"
#800000
0"
#810000
07
b0 P
16
0?
b1010 :"
b100000000000000 9"
0Q
bx ;"
0<"
b0 S#
01
0'
0>#
b11111110111101000010011000100011 X#
b11111110111101000010011000100011 Q#
b1111 Q"
b1000 P"
b1100 N"
b11111111111101000010111111101110 M"
00#
19#
0K#
0I#
0E#
0F#
b11100 l#
1T"
b11111 6"
bx k#
00
0(
bx ="
1"
#820000
0"
#830000
1:
b100000 P
06
b111001101110111 >"
b11011000110010001011111011100100111001100110001 ?"
1Q
b100000 N
bx %"
b111001101110111 W#
b1100 C"
b1111 E"
b1000 D"
b11111111111111111111111111101100 A"
b11111110111101000010011000100011 B"
b100000 8"
1I#
b111 7"
b100000 h#
b1100 D#
1U"
0T"
b100000 6"
0H"
bx G"
b11111111111111111111111111101100 L"
08#
04#
0Y"
1&#
b11100 @"
1F"
bx ="
1"
#840000
0"
#850000
0:
b111001101110100011011010110010101101101 ?"
b10000 *"
b1000000000000000000000000 )"
0$"
0#"
b100000000001010 !"
b1 S#
11
1'
b100000 -
b100000 *
b100000 H#
b1100 0"
b1111 2"
b1000 1"
b11111110111101000010011000100011 /"
b11111111111111111111111111101100 ."
b111001101110111 -"
0F"
b1100 e#
b1111 g#
b1000 f#
b11111110111101000010011000100011 d#
b11111111111111111111111111101100 c#
b111001101110111 b#
1K#
b10 8"
1J"
b1010 I"
b1010 m#
1H"
b100000000000000 G"
b1010 K
b1010 j#
b100000000000000 J
b100000000000000 i#
0U"
b100001 6"
bx ("
1"
#860000
0"
#870000
17
b1010000000000011110010011 >
b1010000000000011110010011 O
1?
b1010000000000011110010011 R#
b1010000000000011110010011 /
b1010000000000011110010011 +
b1010000000000011110010011 =
10
1(
b100010 6"
bx m#
1>#
1"
#880000
0"
#890000
07
1<
b11111111101100 P
0?
bx :"
b0 9"
b1111 *"
b111111111011000000000000 )"
b11111111110110 !"
b0 S#
01
0'
0>#
b1010000000000011110010011 X#
b1010000000000011110010011 Q#
b10100 Q"
b0 P"
b1111 N"
b10100 M"
10#
09#
1L#
0K#
0I#
b11111111101100 J
b11111111101100 i#
1T"
b100011 6"
00
0(
1p#
1"
#900000
0"
