iverilog/wave_files/tb_spi_adc_debug.vcd
$date
	Wed Dec  3 18:33:27 2025
$end
$version
	Icarus Verilog
$end
$timescale
	1ps
$end
$scope module tb_spi_adc_debug $end
$var wire 2 ! internal_adc_state [1:0] $end
$var wire 1 " internal_en_n $end
$var wire 1 # internal_start_bit $end
$var wire 1 $ vref_sel $end
$var wire 1 % sample_and_hold $end
$var wire 1 & pwr_gate $end
$var wire 1 ' miso $end
$var wire 1 ( irq $end
$var wire 1 ) dac_rst $end
$var wire 12 * dac [11:0] $end
$var parameter 32 + ADC_WIDTH $end
$var parameter 32 , SYS_CLK_FREQ $end
$var reg 12 - analog_input_val [11:0] $end
$var reg 1 . comparator $end
$var reg 1 / cs $end
$var reg 16 0 miso_shift [15:0] $end
$var reg 1 1 mosi $end
$var reg 1 2 reset_ $end
$var reg 1 3 sck $end
$var reg 12 4 spi_read_data [11:0] $end
$var reg 1 5 sys_clk $end
$scope module u_dut $end
$var wire 1 6 adc_clk $end
$var wire 1 . comparator $end
$var wire 1 / cs $end
$var wire 1 ( irq $end
$var wire 1 1 mosi $end
$var wire 1 2 reset_ $end
$var wire 1 3 sck $end
$var wire 1 5 sys_clk $end
$var wire 1 $ vref_sel $end
$var wire 1 % sample_and_hold $end
$var wire 1 & pwr_gate $end
$var wire 1 ' miso $end
$var wire 1 7 eoc_flag $end
$var wire 1 ) dac_rst $end
$var wire 12 8 dac [11:0] $end
$var wire 32 9 current_div [31:0] $end
$var wire 12 : ctrl_reg [11:0] $end
$var wire 1 ; bit_vref $end
$var wire 1 < bit_start $end
$var wire 1 = bit_int_en $end
$var wire 1 > bit_en $end
$var wire 1 ? bit_clk_sel $end
$var wire 1 @ bit_auto $end
$var wire 12 A adc_data_out [11:0] $end
$var wire 1 B adc_busy $end
$var wire 1 C adc_ack $end
$var parameter 32 D ADC_WIDTH $end
$var parameter 32 E DIV_16K $end
$var parameter 32 F DIV_8K $end
$var parameter 32 G SYS_CLK_FREQ $end
$var reg 1 H adc_clk_reg $end
$var reg 1 I adc_en_n $end
$var reg 32 J clk_cnt [31:0] $end
$var reg 1 K start_clear_req $end
$scope module u_controller $end
$var wire 1 6 clk $end
$var wire 1 . comparator $end
$var wire 12 L data [11:0] $end
$var wire 1 I en_ $end
$var wire 1 & pwr_gate $end
$var wire 1 M reset_ $end
$var wire 12 N test_value [11:0] $end
$var wire 1 % sample_and_hold $end
$var wire 1 O is_final_bit $end
$var wire 1 ) dac_rst $end
$var wire 12 P dac [11:0] $end
$var wire 1 B busy $end
$var wire 1 C ack $end
$var parameter 2 Q S_CONVERT $end
$var parameter 2 R S_FINISH $end
$var parameter 2 S S_IDLE $end
$var parameter 2 T S_INIT $end
$var parameter 32 U WIDTH $end
$var reg 12 V counter_reg [11:0] $end
$var reg 12 W dac_reg [11:0] $end
$var reg 12 X data_out_reg [11:0] $end
$var reg 2 Y next_state [1:0] $end
$var reg 2 Z state [1:0] $end
$upscope $end
$scope module u_spi $end
$var wire 1 B adc_busy_in $end
$var wire 12 [ adc_data_in [11:0] $end
$var wire 1 C adc_eoc_pulse $end
$var wire 1 5 clk $end
$var wire 1 / cs $end
$var wire 12 \ ctrl_reg_out [11:0] $end
$var wire 1 K hw_clear_start $end
$var wire 1 1 mosi $end
$var wire 1 2 reset_ $end
$var wire 1 3 sck $end
$var wire 1 ] sck_fall $end
$var wire 1 ^ sck_rise $end
$var wire 12 _ pay [11:0] $end
$var wire 1 ' miso $end
$var wire 1 7 eoc_flag_out $end
$var wire 2 ` cmd [1:0] $end
$var wire 2 a addr [1:0] $end
$var parameter 2 b ADDR_CTRL $end
$var parameter 2 c ADDR_DATA $end
$var parameter 2 d ADDR_INFO $end
$var parameter 2 e ADDR_STATUS $end
$var parameter 2 f CMD_CLEAR $end
$var parameter 2 g CMD_READ $end
$var parameter 2 h CMD_SET $end
$var parameter 2 i CMD_WRITE $end
$var parameter 2 j S_IDLE $end
$var parameter 2 k S_LATCH $end
$var parameter 2 l S_SHIFT $end
$var reg 5 m bit_cnt [4:0] $end
$var reg 12 n ctrl_reg [11:0] $end
$var reg 12 o data_reg [11:0] $end
$var reg 1 7 eoc_latch $end
$var reg 12 p info_reg [11:0] $end
$var reg 12 q miso_buffer [11:0] $end
$var reg 1 r sck_s1 $end
$var reg 1 s sck_s2 $end
$var reg 16 t shift_reg [15:0] $end
$var reg 2 u state [1:0] $end
$upscope $end
$upscope $end
$scope fork wait_logic $end
$scope begin success_thread $end
$upscope $end
$scope begin timeout_thread $end
$upscope $end
$upscope $end
$scope task spi_read $end
$var reg 2 v addr [1:0] $end
$var reg 16 w frame [15:0] $end
$var integer 32 x i [31:0] $end
$upscope $end
$scope task spi_write $end
$var reg 2 y addr [1:0] $end
$var reg 12 z data [11:0] $end
$var reg 16 { frame [15:0] $end
$var integer 32 | i [31:0] $end
$upscope $end
$upscope $end
$enddefinitions $end
$comment Show the parameter values. $end
$dumpall
b1 l
b10 k
b0 j
b1 i
b10 h
b0 g
b11 f
b1 e
b11 d
b10 c
b0 b
b1100 U
b1 T
b0 S
b11 R
b10 Q
b10111110101111000010000000 G
b110000110101 F
b11000011010 E
b1100 D
b10111110101111000010000000 ,
b1100 +
$end
#0
$dumpvars
bx |
bx {
bx z
bx y
bx x
bx w
bx v
b0 u
b0 t
0s
0r
b0 q
b1010 p
b0 o
b0 n
b0 m
b0 a
b0 `
b0 _
0^
0]
b0 \
b0 [
b0 Z
b0 Y
b0 X
b0 W
b0 V
b0 P
0O
b0 N
0M
b0 L
0K
b0 J
1I
0H
0C
0B
b0 A
0@
0?
0>
0=
0<
0;
b0 :
b110000110101 9
b0 8
07
06
05
bx 4
03
02
01
bx 0
1/
0.
b101001010010 -
b0 *
0)
0(
z'
0&
0%
0$
0#
1"
b0 !
$end
#5000
1.
#10000
15
#20000
05
#30000
15
#40000
05
#50000
15
#60000
05
#70000
15
#80000
05
#90000
15
#100000
05
#110000
15
#120000
05
#130000
15
#140000
05
#150000
15
#160000
05
#170000
15
#180000
05
#190000
15
#200000
05
#210000
15
#220000
05
#230000
15
#240000
05
#250000
15
#260000
05
#270000
15
#280000
05
#290000
15
#300000
05
#310000
15
#320000
05
#330000
15
#340000
05
#350000
15
#360000
05
#370000
15
#380000
05
#390000
15
#400000
05
#410000
15
#420000
05
#430000
15
#440000
05
#450000
15
#460000
05
#470000
15
#480000
05
#490000
15
#500000
0'
05
0/
b100000000010011 {
b10011 z
b0 y
12
#510000
b1 u
b1 J
15
#520000
05
#530000
b10 J
15
#540000
05
#550000
b11 J
15
#560000
05
#570000
b100 J
15
#580000
05
#590000
b101 J
15
#600000
05
b1111 |
#610000
b110 J
15
#620000
05
#630000
b111 J
15
#640000
05
#650000
b1000 J
15
#660000
05
#670000
b1001 J
15
#680000
05
#690000
b1010 J
15
#700000
05
#710000
b1011 J
15
#720000
05
#730000
b1100 J
15
#740000
05
#750000
b1101 J
15
#760000
05
#770000
b1110 J
15
#780000
05
#790000
b1111 J
15
#800000
bx0 0
05
13
#810000
1^
b10000 J
1r
15
#820000
05
#830000
0^
1s
b1 m
b10001 J
15
#840000
05
#850000
b10010 J
15
#860000
05
#870000
b10011 J
15
#880000
05
#890000
b10100 J
15
#900000
05
#910000
b10101 J
15
#920000
05
#930000
b10110 J
15
#940000
05
#950000
b10111 J
15
#960000
05
#970000
b11000 J
15
#980000
05
#990000
b11001 J
15
#1000000
05
11
b1110 |
03
#1010000
1]
b11010 J
0r
15
#1020000
05
#1030000
0]
0s
b11011 J
15
#1040000
05
#1050000
b11100 J
15
#1060000
05
#1070000
b11101 J
15
#1080000
05
#1090000
b11110 J
15
#1100000
05
#1110000
b11111 J
15
#1120000
05
#1130000
b100000 J
15
#1140000
05
#1150000
b100001 J
15
#1160000
05
#1170000
b100010 J
15
#1180000
05
#1190000
b100011 J
15
#1200000
bx00 0
05
13
#1210000
1^
b100100 J
1r
15
#1220000
05
#1230000
0^
b1 _
1s
b10 m
b1 t
b100101 J
15
#1240000
05
#1250000
b100110 J
15
#1260000
05
#1270000
b100111 J
15
#1280000
05
#1290000
b101000 J
15
#1300000
05
#1310000
b101001 J
15
#1320000
05
#1330000
b101010 J
15
#1340000
05
#1350000
b101011 J
15
#1360000
05
#1370000
b101100 J
15
#1380000
05
#1390000
b101101 J
15
#1400000
05
01
b1101 |
03
#1410000
1]
b101110 J
0r
15
#1420000
05
#1430000
0]
0s
b101111 J
15
#1440000
05
#1450000
b110000 J
15
#1460000
05
#1470000
b110001 J
15
#1480000
05
#1490000
b110010 J
15
#1500000
05
#1510000
b110011 J
15
#1520000
05
#1530000
b110100 J
15
#1540000
05
#1550000
b110101 J
15
#1560000
05
#1570000
b110110 J
15
#1580000
05
#1590000
b110111 J
15
#1600000
bx000 0
05
13
#1610000
1^
b111000 J
1r
15
#1620000
05
#1630000
0^
b10 _
1s
b11 m
b10 t
b111001 J
15
#1640000
05
#1650000
b111010 J
15
#1660000
05
#1670000
b111011 J
15
#1680000
05
#1690000
b111100 J
15
#1700000
05
#1710000
b111101 J
15
#1720000
05
#1730000
b111110 J
15
#1740000
05
#1750000
b111111 J
15
#1760000
05
#1770000
b1000000 J
15
#1780000
05
#1790000
b1000001 J
15
#1800000
05
b1100 |
03
#1810000
1]
b1000010 J
0r
15
#1820000
05
#1830000
0]
0s
b1000011 J
15
#1840000
05
#1850000
b1000100 J
15
#1860000
05
#1870000
b1000101 J
15
#1880000
05
#1890000
b1000110 J
15
#1900000
05
#1910000
b1000111 J
15
#1920000
05
#1930000
b1001000 J
15
#1940000
05
#1950000
b1001001 J
15
#1960000
05
#1970000
b1001010 J
15
#1980000
05
#1990000
b1001011 J
15
#2000000
bx0000 0
05
13
#2010000
1^
b1001100 J
1r
15
#2020000
05
#2030000
0^
b100 _
1s
b100 m
b100 t
b1001101 J
15
#2040000
05
#2050000
b1001110 J
15
#2060000
05
#2070000
b1001111 J
15
#2080000
05
#2090000
b1010000 J
15
#2100000
05
#2110000
b1010001 J
15
#2120000
05
#2130000
b1010010 J
15
#2140000
05
#2150000
b1010011 J
15
#2160000
05
#2170000
b1010100 J
15
#2180000
05
#2190000
b1010101 J
15
#2200000
05
b1011 |
03
#2210000
1]
b1010110 J
0r
15
#2220000
05
#2230000
0]
0s
b1010111 J
15
#2240000
05
#2250000
b1011000 J
15
#2260000
05
#2270000
b1011001 J
15
#2280000
05
#2290000
b1011010 J
15
#2300000
05
#2310000
b1011011 J
15
#2320000
05
#2330000
b1011100 J
15
#2340000
05
#2350000
b1011101 J
15
#2360000
05
#2370000
b1011110 J
15
#2380000
05
#2390000
b1011111 J
15
#2400000
bx00000 0
05
13
#2410000
1^
b1100000 J
1r
15
#2420000
05
#2430000
0^
b1000 _
1s
b101 m
b1000 t
b1100001 J
15
#2440000
05
#2450000
b1100010 J
15
#2460000
05
#2470000
b1100011 J
15
#2480000
05
#2490000
b1100100 J
15
#2500000
05
#2510000
b1100101 J
15
#2520000
05
#2530000
b1100110 J
15
#2540000
05
#2550000
b1100111 J
15
#2560000
05
#2570000
b1101000 J
15
#2580000
05
#2590000
b1101001 J
15
#2600000
05
b1010 |
03
#2610000
1]
b1101010 J
0r
15
#2620000
05
#2630000
0]
0s
b1101011 J
15
#2640000
05
#2650000
b1101100 J
15
#2660000
05
#2670000
b1101101 J
15
#2680000
05
#2690000
b1101110 J
15
#2700000
05
#2710000
b1101111 J
15
#2720000
05
#2730000
b1110000 J
15
#2740000
05
#2750000
b1110001 J
15
#2760000
05
#2770000
b1110010 J
15
#2780000
05
#2790000
b1110011 J
15
#2800000
bx000000 0
05
13
#2810000
1^
b1110100 J
1r
15
#2820000
05
#2830000
0^
b10000 _
1s
b110 m
b10000 t
b1110101 J
15
#2840000
05
#2850000
b1110110 J
15
#2860000
05
#2870000
b1110111 J
15
#2880000
05
#2890000
b1111000 J
15
#2900000
05
#2910000
b1111001 J
15
#2920000
05
#2930000
b1111010 J
15
#2940000
05
#2950000
b1111011 J
15
#2960000
05
#2970000
b1111100 J
15
#2980000
05
#2990000
b1111101 J
15
#3000000
05
b1001 |
03
#3010000
1]
b1111110 J
0r
15
#3020000
05
#3030000
0]
0s
b1111111 J
15
#3040000
05
#3050000
b10000000 J
15
#3060000
05
#3070000
b10000001 J
15
#3080000
05
#3090000
b10000010 J
15
#3100000
05
#3110000
b10000011 J
15
#3120000
05
#3130000
b10000100 J
15
#3140000
05
#3150000
b10000101 J
15
#3160000
05
#3170000
b10000110 J
15
#3180000
05
#3190000
b10000111 J
15
#3200000
bx0000000 0
05
13
#3210000
1^
b10001000 J
1r
15
#3220000
05
#3230000
0^
b100000 _
1s
b111 m
b100000 t
b10001001 J
15
#3240000
05
#3250000
b10001010 J
15
#3260000
05
#3270000
b10001011 J
15
#3280000
05
#3290000
b10001100 J
15
#3300000
05
#3310000
b10001101 J
15
#3320000
05
#3330000
b10001110 J
15
#3340000
05
#3350000
b10001111 J
15
#3360000
05
#3370000
b10010000 J
15
#3380000
05
#3390000
b10010001 J
15
#3400000
05
b1000 |
03
#3410000
1]
b10010010 J
0r
15
#3420000
05
#3430000
0]
0s
b10010011 J
15
#3440000
05
#3450000
b10010100 J
15
#3460000
05
#3470000
b10010101 J
15
#3480000
05
#3490000
b10010110 J
15
#3500000
05
#3510000
b10010111 J
15
#3520000
05
#3530000
b10011000 J
15
#3540000
05
#3550000
b10011001 J
15
#3560000
05
#3570000
b10011010 J
15
#3580000
05
#3590000
b10011011 J
15
#3600000
bx00000000 0
05
13
#3610000
1^
b10011100 J
1r
15
#3620000
05
#3630000
0^
b1000000 _
1s
b1000 m
b1000000 t
b10011101 J
15
#3640000
05
#3650000
b10011110 J
15
#3660000
05
#3670000
b10011111 J
15
#3680000
05
#3690000
b10100000 J
15
#3700000
05
#3710000
b10100001 J
15
#3720000
05
#3730000
b10100010 J
15
#3740000
05
#3750000
b10100011 J
15
#3760000
05
#3770000
b10100100 J
15
#3780000
05
#3790000
b10100101 J
15
#3800000
05
b111 |
03
#3810000
1]
b10100110 J
0r
15
#3820000
05
#3830000
0]
0s
b10100111 J
15
#3840000
05
#3850000
b10101000 J
15
#3860000
05
#3870000
b10101001 J
15
#3880000
05
#3890000
b10101010 J
15
#3900000
05
#3910000
b10101011 J
15
#3920000
05
#3930000
b10101100 J
15
#3940000
05
#3950000
b10101101 J
15
#3960000
05
#3970000
b10101110 J
15
#3980000
05
#3990000
b10101111 J
15
#4000000
bx000000000 0
05
13
#4010000
1^
b10110000 J
1r
15
#4020000
05
#4030000
0^
b10000000 _
1s
b1001 m
b10000000 t
b10110001 J
15
#4040000
05
#4050000
b10110010 J
15
#4060000
05
#4070000
b10110011 J
15
#4080000
05
#4090000
b10110100 J
15
#4100000
05
#4110000
b10110101 J
15
#4120000
05
#4130000
b10110110 J
15
#4140000
05
#4150000
b10110111 J
15
#4160000
05
#4170000
b10111000 J
15
#4180000
05
#4190000
b10111001 J
15
#4200000
05
b110 |
03
#4210000
1]
b10111010 J
0r
15
#4220000
05
#4230000
0]
0s
b10111011 J
15
#4240000
05
#4250000
b10111100 J
15
#4260000
05
#4270000
b10111101 J
15
#4280000
05
#4290000
b10111110 J
15
#4300000
05
#4310000
b10111111 J
15
#4320000
05
#4330000
b11000000 J
15
#4340000
05
#4350000
b11000001 J
15
#4360000
05
#4370000
b11000010 J
15
#4380000
05
#4390000
b11000011 J
15
#4400000
bx0000000000 0
05
13
#4410000
1^
b11000100 J
1r
15
#4420000
05
#4430000
0^
b100000000 _
1s
b1010 m
b100000000 t
b11000101 J
15
#4440000
05
#4450000
b11000110 J
15
#4460000
05
#4470000
b11000111 J
15
#4480000
05
#4490000
b11001000 J
15
#4500000
05
#4510000
b11001001 J
15
#4520000
05
#4530000
b11001010 J
15
#4540000
05
#4550000
b11001011 J
15
#4560000
05
#4570000
b11001100 J
15
#4580000
05
#4590000
b11001101 J
15
#4600000
05
b101 |
03
#4610000
1]
b11001110 J
0r
15
#4620000
05
#4630000
0]
0s
b11001111 J
15
#4640000
05
#4650000
b11010000 J
15
#4660000
05
#4670000
b11010001 J
15
#4680000
05
#4690000
b11010010 J
15
#4700000
05
#4710000
b11010011 J
15
#4720000
05
#4730000
b11010100 J
15
#4740000
05
#4750000
b11010101 J
15
#4760000
05
#4770000
b11010110 J
15
#4780000
05
#4790000
b11010111 J
15
#4800000
bx00000000000 0
05
13
#4810000
1^
b11011000 J
1r
15
#4820000
05
#4830000
0^
b1000000000 _
1s
b1011 m
b1000000000 t
b11011001 J
15
#4840000
05
#4850000
b11011010 J
15
#4860000
05
#4870000
b11011011 J
15
#4880000
05
#4890000
b11011100 J
15
#4900000
05
#4910000
b11011101 J
15
#4920000
05
#4930000
b11011110 J
15
#4940000
05
#4950000
b11011111 J
15
#4960000
05
#4970000
b11100000 J
15
#4980000
05
#4990000
b11100001 J
15
#5000000
05
11
b100 |
03
#5010000
1]
b11100010 J
0r
15
#5020000
05
#5030000
0]
0s
b11100011 J
15
#5040000
05
#5050000
b11100100 J
15
#5060000
05
#5070000
b11100101 J
15
#5080000
05
#5090000
b11100110 J
15
#5100000
05
#5110000
b11100111 J
15
#5120000
05
#5130000
b11101000 J
15
#5140000
05
#5150000
b11101001 J
15
#5160000
05
#5170000
b11101010 J
15
#5180000
05
#5190000
b11101011 J
15
#5200000
bx000000000000 0
05
13
#5210000
1^
b11101100 J
1r
15
#5220000
05
#5230000
0^
b10000000001 _
1s
b1100 m
b10000000001 t
b11101101 J
15
#5240000
05
#5250000
b11101110 J
15
#5260000
05
#5270000
b11101111 J
15
#5280000
05
#5290000
b11110000 J
15
#5300000
05
#5310000
b11110001 J
15
#5320000
05
#5330000
b11110010 J
15
#5340000
05
#5350000
b11110011 J
15
#5360000
05
#5370000
b11110100 J
15
#5380000
05
#5390000
b11110101 J
15
#5400000
05
01
b11 |
03
#5410000
1]
b11110110 J
0r
15
#5420000
05
#5430000
0]
0s
b11110111 J
15
#5440000
05
#5450000
b11111000 J
15
#5460000
05
#5470000
b11111001 J
15
#5480000
05
#5490000
b11111010 J
15
#5500000
05
#5510000
b11111011 J
15
#5520000
05
#5530000
b11111100 J
15
#5540000
05
#5550000
b11111101 J
15
#5560000
05
#5570000
b11111110 J
15
#5580000
05
#5590000
b11111111 J
15
#5600000
bx0000000000000 0
05
13
#5610000
1^
b100000000 J
1r
15
#5620000
05
#5630000
0^
b100000000010 _
1s
b1101 m
b100000000010 t
b100000001 J
15
#5640000
05
#5650000
b100000010 J
15
#5660000
05
#5670000
b100000011 J
15
#5680000
05
#5690000
b100000100 J
15
#5700000
05
#5710000
b100000101 J
15
#5720000
05
#5730000
b100000110 J
15
#5740000
05
#5750000
b100000111 J
15
#5760000
05
#5770000
b100001000 J
15
#5780000
05
#5790000
b100001001 J
15
#5800000
05
b10 |
03
#5810000
1]
b100001010 J
0r
15
#5820000
05
#5830000
0]
0s
b100001011 J
15
#5840000
05
#5850000
b100001100 J
15
#5860000
05
#5870000
b100001101 J
15
#5880000
05
#5890000
b100001110 J
15
#5900000
05
#5910000
b100001111 J
15
#5920000
05
#5930000
b100010000 J
15
#5940000
05
#5950000
b100010001 J
15
#5960000
05
#5970000
b100010010 J
15
#5980000
05
#5990000
b100010011 J
15
#6000000
bx00000000000000 0
05
13
#6010000
1^
b100010100 J
1r
15
#6020000
05
#6030000
0^
b1 a
b100 _
1s
b1110 m
b1000000000100 t
b100010101 J
15
#6040000
05
#6050000
b100010110 J
15
#6060000
05
#6070000
b100010111 J
15
#6080000
05
#6090000
b100011000 J
15
#6100000
05
#6110000
b100011001 J
15
#6120000
05
#6130000
b100011010 J
15
#6140000
05
#6150000
b100011011 J
15
#6160000
05
#6170000
b100011100 J
15
#6180000
05
#6190000
b100011101 J
15
#6200000
05
11
b1 |
03
#6210000
1]
b100011110 J
0r
15
#6220000
05
#6230000
0]
0s
b100011111 J
15
#6240000
05
#6250000
b100100000 J
15
#6260000
05
#6270000
b100100001 J
15
#6280000
05
#6290000
b100100010 J
15
#6300000
05
#6310000
b100100011 J
15
#6320000
05
#6330000
b100100100 J
15
#6340000
05
#6350000
b100100101 J
15
#6360000
05
#6370000
b100100110 J
15
#6380000
05
#6390000
b100100111 J
15
#6400000
bx000000000000000 0
05
13
#6410000
1^
b100101000 J
1r
15
#6420000
05
#6430000
0^
b10 a
b1001 _
1s
b1111 m
b10000000001001 t
b100101001 J
15
#6440000
05
#6450000
b100101010 J
15
#6460000
05
#6470000
b100101011 J
15
#6480000
05
#6490000
b100101100 J
15
#6500000
05
#6510000
b100101101 J
15
#6520000
05
#6530000
b100101110 J
15
#6540000
05
#6550000
b100101111 J
15
#6560000
05
#6570000
b100110000 J
15
#6580000
05
#6590000
b100110001 J
15
#6600000
05
b0 |
03
#6610000
1]
b100110010 J
0r
15
#6620000
05
#6630000
0]
0s
b100110011 J
15
#6640000
05
#6650000
b100110100 J
15
#6660000
05
#6670000
b100110101 J
15
#6680000
05
#6690000
b100110110 J
15
#6700000
05
#6710000
b100110111 J
15
#6720000
05
#6730000
b100111000 J
15
#6740000
05
#6750000
b100111001 J
15
#6760000
05
#6770000
b100111010 J
15
#6780000
05
#6790000
b100111011 J
15
#6800000
b0 0
05
13
#6810000
1^
b100111100 J
1r
15
#6820000
05
#6830000
0^
b1 `
b0 a
b10011 _
1s
b10 u
b10000 m
b100000000010011 t
b100111101 J
15
#6840000
05
#6850000
1M
1=
1#
1<
1>
b100111110 J
b10011 :
b10011 \
b10011 n
b0 u
15
#6860000
05
#6870000
b1 Y
b1 u
b0 m
b100111111 J
0"
0I
15
#6880000
05
#6890000
b101000000 J
15
#6900000
05
#6910000
b101000001 J
15
#6920000
05
#6930000
b101000010 J
15
#6940000
05
#6950000
b101000011 J
15
#6960000
05
#6970000
b101000100 J
15
#6980000
05
#6990000
b101000101 J
15
#7000000
05
b11111111111111111111111111111111 |
03
#7010000
1]
b101000110 J
0r
15
#7020000
05
#7030000
0]
0s
b101000111 J
15
#7040000
05
#7050000
b101001000 J
15
#7060000
05
#7070000
b101001001 J
15
#7080000
05
#7090000
b101001010 J
15
#7100000
z'
05
01
1/
#7110000
b0 u
b101001011 J
15
#7120000
05
#7130000
b101001100 J
15
#7140000
05
#7150000
b101001101 J
15
#7160000
05
#7170000
b101001110 J
15
#7180000
05
#7190000
b101001111 J
15
#7200000
05
#7210000
b101010000 J
15
#7220000
05
#7230000
b101010001 J
15
#7240000
05
#7250000
b101010010 J
15
#7260000
05
#7270000
b101010011 J
15
#7280000
05
#7290000
b101010100 J
15
#7300000
05
#7310000
b101010101 J
15
#7320000
05
#7330000
b101010110 J
15
#7340000
05
#7350000
b101010111 J
15
#7360000
05
#7370000
b101011000 J
15
#7380000
05
#7390000
b101011001 J
15
#7400000
05
#7410000
b101011010 J
15
#7420000
05
#7430000
b101011011 J
15
#7440000
05
#7450000
b101011100 J
15
#7460000
05
#7470000
b101011101 J
15
#7480000
05
#7490000
b101011110 J
15
#7500000
05
#7510000
b101011111 J
15
#7520000
05
#7530000
b101100000 J
15
#7540000
05
#7550000
b101100001 J
15
#7560000
05
#7570000
b101100010 J
15
#7580000
05
#7590000
b101100011 J
15
#7600000
05
#7610000
b101100100 J
15
#7620000
05
#7630000
b101100101 J
15
#7640000
05
#7650000
b101100110 J
15
#7660000
05
#7670000
b101100111 J
15
#7680000
05
#7690000
b101101000 J
15
#7700000
05
#7710000
b101101001 J
15
#7720000
05
#7730000
b101101010 J
15
#7740000
05
#7750000
b101101011 J
15
#7760000
05
#7770000
b101101100 J
15
#7780000
05
#7790000
b101101101 J
15
#7800000
05
#7810000
b101101110 J
15
#7820000
05
#7830000
b101101111 J
15
#7840000
05
#7850000
b101110000 J
15
#7860000
05
#7870000
b101110001 J
15
#7880000
05
#7890000
b101110010 J
15
#7900000
05
#7910000
b101110011 J
15
#7920000
05
#7930000
b101110100 J
15
#7940000
05
#7950000
b101110101 J
15
#7960000
05
#7970000
b101110110 J
15
#7980000
05
#7990000
b101110111 J
15
#8000000
05
#8010000
b101111000 J
15
#8020000
05
#8030000
b101111001 J
15
#8040000
05
#8050000
b101111010 J
15
#8060000
05
#8070000
b101111011 J
15
#8080000
05
#8090000
b101111100 J
15
#8100000
05
#8110000
b101111101 J
15
#8120000
05
#8130000
b101111110 J
15
#8140000
05
#8150000
b101111111 J
15
#8160000
05
#8170000
b110000000 J
15
#8180000
05
#8190000
b110000001 J
15
#8200000
05
#8210000
b110000010 J
15
#8220000
05
#8230000
b110000011 J
15
#8240000
05
#8250000
b110000100 J
15
#8260000
05
#8270000
b110000101 J
15
#8280000
05
#8290000
b110000110 J
15
#8300000
05
#8310000
b110000111 J
15
#8320000
05
#8330000
b110001000 J
15
#8340000
05
#8350000
b110001001 J
15
#8360000
05
#8370000
b110001010 J
15
#8380000
05
#8390000
b110001011 J
15
#8400000
05
#8410000
b110001100 J
15
#8420000
05
#8430000
b110001101 J
15
#8440000
05
#8450000
b110001110 J
15
#8460000
05
#8470000
b110001111 J
15
#8480000
05
#8490000
b110010000 J
15
#8500000
05
#8510000
b110010001 J
15
#8520000
05
#8530000
b110010010 J
15
#8540000
05
#8550000
b110010011 J
15
#8560000
05
#8570000
b110010100 J
15
#8580000
05
#8590000
b110010101 J
15
#8600000
05
#8610000
b110010110 J
15
#8620000
05
#8630000
b110010111 J
15
#8640000
05
#8650000
b110011000 J
15
#8660000
05
#8670000
b110011001 J
15
#8680000
05
#8690000
b110011010 J
15
#8700000
05
#8710000
b110011011 J
15
#8720000
05
#8730000
b110011100 J
15
#8740000
05
#8750000
b110011101 J
15
#8760000
05
#8770000
b110011110 J
15
#8780000
05
#8790000
b110011111 J
15
#8800000
05
#8810000
b110100000 J
15
#8820000
05
#8830000
b110100001 J
15
#8840000
05
#8850000
b110100010 J
15
#8860000
05
#8870000
b110100011 J
15
#8880000
05
#8890000
b110100100 J
15
#8900000
05
#8910000
b110100101 J
15
#8920000
05
#8930000
b110100110 J
15
#8940000
05
#8950000
b110100111 J
15
#8960000
05
#8970000
b110101000 J
15
#8980000
05
#8990000
b110101001 J
15
#9000000
05
#9010000
b110101010 J
15
#9020000
05
#9030000
b110101011 J
15
#9040000
05
#9050000
b110101100 J
15
#9060000
05
#9070000
b110101101 J
15
#9080000
05
#9090000
b110101110 J
15
#9100000
05
#9110000
b110101111 J
15
#9120000
05
#9130000
b110110000 J
15
#9140000
05
#9150000
b110110001 J
15
#9160000
05
#9170000
b110110010 J
15
#9180000
05
#9190000
b110110011 J
15
#9200000
05
#9210000
b110110100 J
15
#9220000
05
#9230000
b110110101 J
15
#9240000
05
#9250000
b110110110 J
15
#9260000
05
#9270000
b110110111 J
15
#9280000
05
#9290000
b110111000 J
15
#9300000
05
#9310000
b110111001 J
15
#9320000
05
#9330000
b110111010 J
15
#9340000
05
#9350000
b110111011 J
15
#9360000
05
#9370000
b110111100 J
15
#9380000
05
#9390000
b110111101 J
15
#9400000
05
#9410000
b110111110 J
15
#9420000
05
#9430000
b110111111 J
15
#9440000
05
#9450000
b111000000 J
15
#9460000
05
#9470000
b111000001 J
15
#9480000
05
#9490000
b111000010 J
15
#9500000
05
#9510000
b111000011 J
15
#9520000
05
#9530000
b111000100 J
15
#9540000
05
#9550000
b111000101 J
15
#9560000
05
#9570000
b111000110 J
15
#9580000
05
#9590000
b111000111 J
15
#9600000
05
#9610000
b111001000 J
15
#9620000
05
#9630000
b111001001 J
15
#9640000
05
#9650000
b111001010 J
15
#9660000
05
#9670000
b111001011 J
15
#9680000
05
#9690000
b111001100 J
15
#9700000
05
#9710000
b111001101 J
15
#9720000
05
#9730000
b111001110 J
15
#9740000
05
#9750000
b111001111 J
15
#9760000
05
#9770000
b111010000 J
15
#9780000
05
#9790000
b111010001 J
15
#9800000
05
#9810000
b111010010 J
15
#9820000
05
#9830000
b111010011 J
15
#9840000
05
#9850000
b111010100 J
15
#9860000
05
#9870000
b111010101 J
15
#9880000
05
#9890000
b111010110 J
15
#9900000
05
#9910000
b111010111 J
15
#9920000
05
#9930000
b111011000 J
15
#9940000
05
#9950000
b111011001 J
15
#9960000
05
#9970000
b111011010 J
15
#9980000
05
#9990000
b111011011 J
15
#10000000
05
#10010000
b111011100 J
15
#10020000
05
#10030000
b111011101 J
15
#10040000
05
#10050000
b111011110 J
15
#10060000
05
#10070000
b111011111 J
15
#10080000
05
#10090000
b111100000 J
15
#10100000
05
#10110000
b111100001 J
15
#10120000
05
#10130000
b111100010 J
15
#10140000
05
#10150000
b111100011 J
15
#10160000
05
#10170000
b111100100 J
15
#10180000
05
#10190000
b111100101 J
15
#10200000
05
#10210000
b111100110 J
15
#10220000
05
#10230000
b111100111 J
15
#10240000
05
#10250000
b111101000 J
15
#10260000
05
#10270000
b111101001 J
15
#10280000
05
#10290000
b111101010 J
15
#10300000
05
#10310000
b111101011 J
15
#10320000
05
#10330000
b111101100 J
15
#10340000
05
#10350000
b111101101 J
15
#10360000
05
#10370000
b111101110 J
15
#10380000
05
#10390000
b111101111 J
15
#10400000
05
#10410000
b111110000 J
15
#10420000
05
#10430000
b111110001 J
15
#10440000
05
#10450000
b111110010 J
15
#10460000
05
#10470000
b111110011 J
15
#10480000
05
#10490000
b111110100 J
15
#10500000
05
#10510000
b111110101 J
15
#10520000
05
#10530000
b111110110 J
15
#10540000
05
#10550000
b111110111 J
15
#10560000
05
#10570000
b111111000 J
15
#10580000
05
#10590000
b111111001 J
15
#10600000
05
#10610000
b111111010 J
15
#10620000
05
#10630000
b111111011 J
15
#10640000
05
#10650000
b111111100 J
15
#10660000
05
#10670000
b111111101 J
15
#10680000
05
#10690000
b111111110 J
15
#10700000
05
#10710000
b111111111 J
15
#10720000
05
#10730000
b1000000000 J
15
#10740000
05
#10750000
b1000000001 J
15
#10760000
05
