iverilog/wave_files/tb_spi_adc.vcd
$date
	Wed Dec  3 18:35:54 2025
$end
$version
	Icarus Verilog
$end
$timescale
	1ps
$end
$scope module tb_spi_adc $end
$var wire 1 ! vref_sel $end
$var wire 1 " sample_and_hold $end
$var wire 1 # pwr_gate $end
$var wire 1 $ miso $end
$var wire 1 % irq $end
$var wire 1 & dac_rst $end
$var wire 12 ' dac [11:0] $end
$var parameter 32 ( ADC_WIDTH $end
$var parameter 32 ) SYS_CLK_FREQ $end
$var reg 12 * analog_input_val [11:0] $end
$var reg 1 + comparator $end
$var reg 1 , cs $end
$var reg 16 - miso_shift [15:0] $end
$var reg 1 . mosi $end
$var reg 1 / reset_ $end
$var reg 1 0 sck $end
$var reg 12 1 spi_read_data [11:0] $end
$var reg 1 2 sys_clk $end
$scope module u_dut $end
$var wire 1 3 adc_clk $end
$var wire 1 + comparator $end
$var wire 1 , cs $end
$var wire 1 % irq $end
$var wire 1 . mosi $end
$var wire 1 / reset_ $end
$var wire 1 0 sck $end
$var wire 1 2 sys_clk $end
$var wire 1 ! vref_sel $end
$var wire 1 " sample_and_hold $end
$var wire 1 # pwr_gate $end
$var wire 1 $ miso $end
$var wire 1 4 eoc_flag $end
$var wire 1 & dac_rst $end
$var wire 12 5 dac [11:0] $end
$var wire 32 6 current_div [31:0] $end
$var wire 12 7 ctrl_reg [11:0] $end
$var wire 1 8 bit_vref $end
$var wire 1 9 bit_start $end
$var wire 1 : bit_int_en $end
$var wire 1 ; bit_en $end
$var wire 1 < bit_clk_sel $end
$var wire 1 = bit_auto $end
$var wire 12 > adc_data_out [11:0] $end
$var wire 1 ? adc_busy $end
$var wire 1 @ adc_ack $end
$var parameter 32 A ADC_WIDTH $end
$var parameter 32 B DIV_16K $end
$var parameter 32 C DIV_8K $end
$var parameter 32 D SYS_CLK_FREQ $end
$var reg 1 E adc_clk_reg $end
$var reg 1 F adc_en_n $end
$var reg 32 G clk_cnt [31:0] $end
$var reg 1 H start_clear_req $end
$scope module u_controller $end
$var wire 1 3 clk $end
$var wire 1 + comparator $end
$var wire 12 I data [11:0] $end
$var wire 1 F en_ $end
$var wire 1 # pwr_gate $end
$var wire 1 J reset_ $end
$var wire 12 K test_value [11:0] $end
$var wire 1 " sample_and_hold $end
$var wire 1 L is_final_bit $end
$var wire 1 & dac_rst $end
$var wire 12 M dac [11:0] $end
$var wire 1 ? busy $end
$var wire 1 @ ack $end
$var parameter 2 N S_CONVERT $end
$var parameter 2 O S_FINISH $end
$var parameter 2 P S_IDLE $end
$var parameter 2 Q S_INIT $end
$var parameter 32 R WIDTH $end
$var reg 12 S counter_reg [11:0] $end
$var reg 12 T dac_reg [11:0] $end
$var reg 12 U data_out_reg [11:0] $end
$var reg 2 V next_state [1:0] $end
$var reg 2 W state [1:0] $end
$upscope $end
$scope module u_spi $end
$var wire 1 ? adc_busy_in $end
$var wire 12 X adc_data_in [11:0] $end
$var wire 1 @ adc_eoc_pulse $end
$var wire 1 2 clk $end
$var wire 1 , cs $end
$var wire 12 Y ctrl_reg_out [11:0] $end
$var wire 1 H hw_clear_start $end
$var wire 1 . mosi $end
$var wire 1 / reset_ $end
$var wire 1 0 sck $end
$var wire 1 Z sck_fall $end
$var wire 1 [ sck_rise $end
$var wire 12 \ pay [11:0] $end
$var wire 1 $ miso $end
$var wire 1 4 eoc_flag_out $end
$var wire 2 ] cmd [1:0] $end
$var wire 2 ^ addr [1:0] $end
$var parameter 2 _ ADDR_CTRL $end
$var parameter 2 ` ADDR_DATA $end
$var parameter 2 a ADDR_INFO $end
$var parameter 2 b ADDR_STATUS $end
$var parameter 2 c CMD_CLEAR $end
$var parameter 2 d CMD_READ $end
$var parameter 2 e CMD_SET $end
$var parameter 2 f CMD_WRITE $end
$var parameter 2 g S_IDLE $end
$var parameter 2 h S_LATCH $end
$var parameter 2 i S_SHIFT $end
$var reg 5 j bit_cnt [4:0] $end
$var reg 12 k ctrl_reg [11:0] $end
$var reg 12 l data_reg [11:0] $end
$var reg 1 4 eoc_latch $end
$var reg 12 m info_reg [11:0] $end
$var reg 12 n miso_buffer [11:0] $end
$var reg 1 o sck_s1 $end
$var reg 1 p sck_s2 $end
$var reg 16 q shift_reg [15:0] $end
$var reg 2 r state [1:0] $end
$upscope $end
$upscope $end
$scope task spi_read $end
$var reg 2 s addr [1:0] $end
$var reg 16 t frame [15:0] $end
$var integer 32 u i [31:0] $end
$upscope $end
$scope task spi_write $end
$var reg 2 v addr [1:0] $end
$var reg 12 w data [11:0] $end
$var reg 16 x frame [15:0] $end
$var integer 32 y i [31:0] $end
$upscope $end
$upscope $end
$enddefinitions $end
$comment Show the parameter values. $end
$dumpall
b1 i
b10 h
b0 g
b1 f
b10 e
b0 d
b11 c
b1 b
b11 a
b10 `
b0 _
b1100 R
b1 Q
b0 P
b11 O
b10 N
b10111110101111000010000000 D
b110000110101 C
b11000011010 B
b1100 A
b10111110101111000010000000 )
b1100 (
$end
#0
$dumpvars
bx y
bx x
bx w
bx v
bx u
bx t
bx s
b0 r
b0 q
0p
0o
b0 n
b1010 m
b0 l
b0 k
b0 j
b0 ^
b0 ]
b0 \
0[
0Z
b0 Y
b0 X
b0 W
b0 V
b0 U
b0 T
b0 S
b0 M
0L
b0 K
0J
b0 I
0H
b0 G
1F
0E
0@
0?
b0 >
0=
0<
0;
0:
09
08
b0 7
b110000110101 6
b0 5
04
03
02
bx 1
00
0/
0.
bx -
1,
0+
b0 *
b0 '
0&
0%
z$
0#
0"
0!
$end
#5000
1+
#10000
12
#20000
02
#30000
12
#40000
02
#50000
12
#60000
02
#70000
12
#80000
02
#90000
12
#100000
02
#110000
12
#120000
02
#130000
12
#140000
02
#150000
12
#160000
02
#170000
12
#180000
02
#190000
12
#200000
02
#210000
12
#220000
02
#230000
12
#240000
02
#250000
12
#260000
02
#270000
12
#280000
02
#290000
12
#300000
02
#310000
12
#320000
02
#330000
12
#340000
02
#350000
12
#360000
02
#370000
12
#380000
02
#390000
12
#400000
02
#410000
12
#420000
02
#430000
12
#440000
02
#450000
12
#460000
02
#470000
12
#480000
02
#490000
12
#500000
02
1/
#510000
b1 G
12
#520000
02
#530000
b10 G
12
#540000
02
#550000
b11 G
12
#560000
02
#570000
b100 G
12
#580000
02
#590000
b101 G
12
#600000
02
#610000
b110 G
12
#620000
02
#630000
b111 G
12
#640000
02
#650000
b1000 G
12
#660000
02
#670000
b1001 G
12
#680000
02
#690000
b1010 G
12
#700000
02
#710000
b1011 G
12
#720000
02
#730000
b1100 G
12
#740000
02
#750000
b1101 G
12
#760000
02
#770000
b1110 G
12
#780000
02
#790000
b1111 G
12
#800000
02
#810000
b10000 G
12
#820000
02
#830000
b10001 G
12
#840000
02
#850000
b10010 G
12
#860000
02
#870000
b10011 G
12
#880000
02
#890000
b10100 G
12
#900000
02
#910000
b10101 G
12
#920000
02
#930000
b10110 G
12
#940000
02
#950000
b10111 G
12
#960000
02
#970000
b11000 G
12
#980000
02
#990000
b11001 G
12
#1000000
0$
02
0,
b100000000010011 x
b10011 w
b0 v
b101001010010 *
#1010000
b11010 G
b1 r
12
#1020000
02
#1030000
b11011 G
12
#1040000
02
#1050000
b11100 G
12
#1060000
02
#1070000
b11101 G
12
#1080000
02
#1090000
b11110 G
12
#1100000
02
b1111 y
#1110000
b11111 G
12
#1120000
02
#1130000
b100000 G
12
#1140000
02
#1150000
b100001 G
12
#1160000
02
#1170000
b100010 G
12
#1180000
02
#1190000
b100011 G
12
#1200000
02
#1210000
b100100 G
12
#1220000
02
#1230000
b100101 G
12
#1240000
02
#1250000
b100110 G
12
#1260000
02
#1270000
b100111 G
12
#1280000
02
#1290000
b101000 G
12
#1300000
bx0 -
02
10
#1310000
1[
1o
b101001 G
12
#1320000
02
#1330000
0[
b101010 G
b1 j
1p
12
#1340000
02
#1350000
b101011 G
12
#1360000
02
#1370000
b101100 G
12
#1380000
02
#1390000
b101101 G
12
#1400000
02
#1410000
b101110 G
12
#1420000
02
#1430000
b101111 G
12
#1440000
02
#1450000
b110000 G
12
#1460000
02
#1470000
b110001 G
12
#1480000
02
#1490000
b110010 G
12
#1500000
02
1.
b1110 y
00
#1510000
1Z
0o
b110011 G
12
#1520000
02
#1530000
0Z
b110100 G
0p
12
#1540000
02
#1550000
b110101 G
12
#1560000
02
#1570000
b110110 G
12
#1580000
02
#1590000
b110111 G
12
#1600000
02
#1610000
b111000 G
12
#1620000
02
#1630000
b111001 G
12
#1640000
02
#1650000
b111010 G
12
#1660000
02
#1670000
b111011 G
12
#1680000
02
#1690000
b111100 G
12
#1700000
bx00 -
02
10
#1710000
1[
1o
b111101 G
12
#1720000
02
#1730000
b1 \
0[
b111110 G
b10 j
b1 q
1p
12
#1740000
02
#1750000
b111111 G
12
#1760000
02
#1770000
b1000000 G
12
#1780000
02
#1790000
b1000001 G
12
#1800000
02
#1810000
b1000010 G
12
#1820000
02
#1830000
b1000011 G
12
#1840000
02
#1850000
b1000100 G
12
#1860000
02
#1870000
b1000101 G
12
#1880000
02
#1890000
b1000110 G
12
#1900000
02
0.
b1101 y
00
#1910000
1Z
0o
b1000111 G
12
#1920000
02
#1930000
0Z
b1001000 G
0p
12
#1940000
02
#1950000
b1001001 G
12
#1960000
02
#1970000
b1001010 G
12
#1980000
02
#1990000
b1001011 G
12
#2000000
02
#2010000
b1001100 G
12
#2020000
02
#2030000
b1001101 G
12
#2040000
02
#2050000
b1001110 G
12
#2060000
02
#2070000
b1001111 G
12
#2080000
02
#2090000
b1010000 G
12
#2100000
bx000 -
02
10
#2110000
1[
1o
b1010001 G
12
#2120000
02
#2130000
b10 \
0[
b1010010 G
b11 j
b10 q
1p
12
#2140000
02
#2150000
b1010011 G
12
#2160000
02
#2170000
b1010100 G
12
#2180000
02
#2190000
b1010101 G
12
#2200000
02
#2210000
b1010110 G
12
#2220000
02
#2230000
b1010111 G
12
#2240000
02
#2250000
b1011000 G
12
#2260000
02
#2270000
b1011001 G
12
#2280000
02
#2290000
b1011010 G
12
#2300000
02
b1100 y
00
#2310000
1Z
0o
b1011011 G
12
#2320000
02
#2330000
0Z
b1011100 G
0p
12
#2340000
02
#2350000
b1011101 G
12
#2360000
02
#2370000
b1011110 G
12
#2380000
02
#2390000
b1011111 G
12
#2400000
02
#2410000
b1100000 G
12
#2420000
02
#2430000
b1100001 G
12
#2440000
02
#2450000
b1100010 G
12
#2460000
02
#2470000
b1100011 G
12
#2480000
02
#2490000
b1100100 G
12
#2500000
bx0000 -
02
10
#2510000
1[
1o
b1100101 G
12
#2520000
02
#2530000
b100 \
0[
b1100110 G
b100 j
b100 q
1p
12
#2540000
02
#2550000
b1100111 G
12
#2560000
02
#2570000
b1101000 G
12
#2580000
02
#2590000
b1101001 G
12
#2600000
02
#2610000
b1101010 G
12
#2620000
02
#2630000
b1101011 G
12
#2640000
02
#2650000
b1101100 G
12
#2660000
02
#2670000
b1101101 G
12
#2680000
02
#2690000
b1101110 G
12
#2700000
02
b1011 y
00
#2710000
1Z
0o
b1101111 G
12
#2720000
02
#2730000
0Z
b1110000 G
0p
12
#2740000
02
#2750000
b1110001 G
12
#2760000
02
#2770000
b1110010 G
12
#2780000
02
#2790000
b1110011 G
12
#2800000
02
#2810000
b1110100 G
12
#2820000
02
#2830000
b1110101 G
12
#2840000
02
#2850000
b1110110 G
12
#2860000
02
#2870000
b1110111 G
12
#2880000
02
#2890000
b1111000 G
12
#2900000
bx00000 -
02
10
#2910000
1[
1o
b1111001 G
12
#2920000
02
#2930000
b1000 \
0[
b1111010 G
b101 j
b1000 q
1p
12
#2940000
02
#2950000
b1111011 G
12
#2960000
02
#2970000
b1111100 G
12
#2980000
02
#2990000
b1111101 G
12
#3000000
02
#3010000
b1111110 G
12
#3020000
02
#3030000
b1111111 G
12
#3040000
02
#3050000
b10000000 G
12
#3060000
02
#3070000
b10000001 G
12
#3080000
02
#3090000
b10000010 G
12
#3100000
02
b1010 y
00
#3110000
1Z
0o
b10000011 G
12
#3120000
02
#3130000
0Z
b10000100 G
0p
12
#3140000
02
#3150000
b10000101 G
12
#3160000
02
#3170000
b10000110 G
12
#3180000
02
#3190000
b10000111 G
12
#3200000
02
#3210000
b10001000 G
12
#3220000
02
#3230000
b10001001 G
12
#3240000
02
#3250000
b10001010 G
12
#3260000
02
#3270000
b10001011 G
12
#3280000
02
#3290000
b10001100 G
12
#3300000
bx000000 -
02
10
#3310000
1[
1o
b10001101 G
12
#3320000
02
#3330000
b10000 \
0[
b10001110 G
b110 j
b10000 q
1p
12
#3340000
02
#3350000
b10001111 G
12
#3360000
02
#3370000
b10010000 G
12
#3380000
02
#3390000
b10010001 G
12
#3400000
02
#3410000
b10010010 G
12
#3420000
02
#3430000
b10010011 G
12
#3440000
02
#3450000
b10010100 G
12
#3460000
02
#3470000
b10010101 G
12
#3480000
02
#3490000
b10010110 G
12
#3500000
02
b1001 y
00
#3510000
1Z
0o
b10010111 G
12
#3520000
02
#3530000
0Z
b10011000 G
0p
12
#3540000
02
#3550000
b10011001 G
12
#3560000
02
#3570000
b10011010 G
12
#3580000
02
#3590000
b10011011 G
12
#3600000
02
#3610000
b10011100 G
12
#3620000
02
#3630000
b10011101 G
12
#3640000
02
#3650000
b10011110 G
12
#3660000
02
#3670000
b10011111 G
12
#3680000
02
#3690000
b10100000 G
12
#3700000
bx0000000 -
02
10
#3710000
1[
1o
b10100001 G
12
#3720000
02
#3730000
b100000 \
0[
b10100010 G
b111 j
b100000 q
1p
12
#3740000
02
#3750000
b10100011 G
12
#3760000
02
#3770000
b10100100 G
12
#3780000
02
#3790000
b10100101 G
12
#3800000
02
#3810000
b10100110 G
12
#3820000
02
#3830000
b10100111 G
12
#3840000
02
#3850000
b10101000 G
12
#3860000
02
#3870000
b10101001 G
12
#3880000
02
#3890000
b10101010 G
12
#3900000
02
b1000 y
00
#3910000
1Z
0o
b10101011 G
12
#3920000
02
#3930000
0Z
b10101100 G
0p
12
#3940000
02
#3950000
b10101101 G
12
#3960000
02
#3970000
b10101110 G
12
#3980000
02
#3990000
b10101111 G
12
#4000000
02
#4010000
b10110000 G
12
#4020000
02
#4030000
b10110001 G
12
#4040000
02
#4050000
b10110010 G
12
#4060000
02
#4070000
b10110011 G
12
#4080000
02
#4090000
b10110100 G
12
#4100000
bx00000000 -
02
10
#4110000
1[
1o
b10110101 G
12
#4120000
02
#4130000
b1000000 \
0[
b10110110 G
b1000 j
b1000000 q
1p
12
#4140000
02
#4150000
b10110111 G
12
#4160000
02
#4170000
b10111000 G
12
#4180000
02
#4190000
b10111001 G
12
#4200000
02
#4210000
b10111010 G
12
#4220000
02
#4230000
b10111011 G
12
#4240000
02
#4250000
b10111100 G
12
#4260000
02
#4270000
b10111101 G
12
#4280000
02
#4290000
b10111110 G
12
#4300000
02
b111 y
00
#4310000
1Z
0o
b10111111 G
12
#4320000
02
#4330000
0Z
b11000000 G
0p
12
#4340000
02
#4350000
b11000001 G
12
#4360000
02
#4370000
b11000010 G
12
#4380000
02
#4390000
b11000011 G
12
#4400000
02
#4410000
b11000100 G
12
#4420000
02
#4430000
b11000101 G
12
#4440000
02
#4450000
b11000110 G
12
#4460000
02
#4470000
b11000111 G
12
#4480000
02
#4490000
b11001000 G
12
#4500000
bx000000000 -
02
10
#4510000
1[
1o
b11001001 G
12
#4520000
02
#4530000
b10000000 \
0[
b11001010 G
b1001 j
b10000000 q
1p
12
#4540000
02
#4550000
b11001011 G
12
#4560000
02
#4570000
b11001100 G
12
#4580000
02
#4590000
b11001101 G
12
#4600000
02
#4610000
b11001110 G
12
#4620000
02
#4630000
b11001111 G
12
#4640000
02
#4650000
b11010000 G
12
#4660000
02
#4670000
b11010001 G
12
#4680000
02
#4690000
b11010010 G
12
#4700000
02
b110 y
00
#4710000
1Z
0o
b11010011 G
12
#4720000
02
#4730000
0Z
b11010100 G
0p
12
#4740000
02
#4750000
b11010101 G
12
#4760000
02
#4770000
b11010110 G
12
#4780000
02
#4790000
b11010111 G
12
#4800000
02
#4810000
b11011000 G
12
#4820000
02
#4830000
b11011001 G
12
#4840000
02
#4850000
b11011010 G
12
#4860000
02
#4870000
b11011011 G
12
#4880000
02
#4890000
b11011100 G
12
#4900000
bx0000000000 -
02
10
#4910000
1[
1o
b11011101 G
12
#4920000
02
#4930000
b100000000 \
0[
b11011110 G
b1010 j
b100000000 q
1p
12
#4940000
02
#4950000
b11011111 G
12
#4960000
02
#4970000
b11100000 G
12
#4980000
02
#4990000
b11100001 G
12
#5000000
02
#5010000
b11100010 G
12
#5020000
02
#5030000
b11100011 G
12
#5040000
02
#5050000
b11100100 G
12
#5060000
02
#5070000
b11100101 G
12
#5080000
02
#5090000
b11100110 G
12
#5100000
02
b101 y
00
#5110000
1Z
0o
b11100111 G
12
#5120000
02
#5130000
0Z
b11101000 G
0p
12
#5140000
02
#5150000
b11101001 G
12
#5160000
02
#5170000
b11101010 G
12
#5180000
02
#5190000
b11101011 G
12
#5200000
02
#5210000
b11101100 G
12
#5220000
02
#5230000
b11101101 G
12
#5240000
02
#5250000
b11101110 G
12
#5260000
02
#5270000
b11101111 G
12
#5280000
02
#5290000
b11110000 G
12
#5300000
bx00000000000 -
02
10
#5310000
1[
1o
b11110001 G
12
#5320000
02
#5330000
b1000000000 \
0[
b11110010 G
b1011 j
b1000000000 q
1p
12
#5340000
02
#5350000
b11110011 G
12
#5360000
02
#5370000
b11110100 G
12
#5380000
02
#5390000
b11110101 G
12
#5400000
02
#5410000
b11110110 G
12
#5420000
02
#5430000
b11110111 G
12
#5440000
02
#5450000
b11111000 G
12
#5460000
02
#5470000
b11111001 G
12
#5480000
02
#5490000
b11111010 G
12
#5500000
02
1.
b100 y
00
#5510000
1Z
0o
b11111011 G
12
#5520000
02
#5530000
0Z
b11111100 G
0p
12
#5540000
02
#5550000
b11111101 G
12
#5560000
02
#5570000
b11111110 G
12
#5580000
02
#5590000
b11111111 G
12
#5600000
02
#5610000
b100000000 G
12
#5620000
02
#5630000
b100000001 G
12
#5640000
02
#5650000
b100000010 G
12
#5660000
02
#5670000
b100000011 G
12
#5680000
02
#5690000
b100000100 G
12
#5700000
bx000000000000 -
02
10
#5710000
1[
1o
b100000101 G
12
#5720000
02
#5730000
b10000000001 \
0[
b100000110 G
b1100 j
b10000000001 q
1p
12
#5740000
02
#5750000
b100000111 G
12
#5760000
02
#5770000
b100001000 G
12
#5780000
02
#5790000
b100001001 G
12
#5800000
02
#5810000
b100001010 G
12
#5820000
02
#5830000
b100001011 G
12
#5840000
02
#5850000
b100001100 G
12
#5860000
02
#5870000
b100001101 G
12
#5880000
02
#5890000
b100001110 G
12
#5900000
02
0.
b11 y
00
#5910000
1Z
0o
b100001111 G
12
#5920000
02
#5930000
0Z
b100010000 G
0p
12
#5940000
02
#5950000
b100010001 G
12
#5960000
02
#5970000
b100010010 G
12
#5980000
02
#5990000
b100010011 G
12
#6000000
02
#6010000
b100010100 G
12
#6020000
02
#6030000
b100010101 G
12
#6040000
02
#6050000
b100010110 G
12
#6060000
02
#6070000
b100010111 G
12
#6080000
02
#6090000
b100011000 G
12
#6100000
bx0000000000000 -
02
10
#6110000
1[
1o
b100011001 G
12
#6120000
02
#6130000
b100000000010 \
0[
b100011010 G
b1101 j
b100000000010 q
1p
12
#6140000
02
#6150000
b100011011 G
12
#6160000
02
#6170000
b100011100 G
12
#6180000
02
#6190000
b100011101 G
12
#6200000
02
#6210000
b100011110 G
12
#6220000
02
#6230000
b100011111 G
12
#6240000
02
#6250000
b100100000 G
12
#6260000
02
#6270000
b100100001 G
12
#6280000
02
#6290000
b100100010 G
12
#6300000
02
b10 y
00
#6310000
1Z
0o
b100100011 G
12
#6320000
02
#6330000
0Z
b100100100 G
0p
12
#6340000
02
#6350000
b100100101 G
12
#6360000
02
#6370000
b100100110 G
12
#6380000
02
#6390000
b100100111 G
12
#6400000
02
#6410000
b100101000 G
12
#6420000
02
#6430000
b100101001 G
12
#6440000
02
#6450000
b100101010 G
12
#6460000
02
#6470000
b100101011 G
12
#6480000
02
#6490000
b100101100 G
12
#6500000
bx00000000000000 -
02
10
#6510000
1[
1o
b100101101 G
12
#6520000
02
#6530000
b1 ^
b100 \
0[
b100101110 G
b1110 j
b1000000000100 q
1p
12
#6540000
02
#6550000
b100101111 G
12
#6560000
02
#6570000
b100110000 G
12
#6580000
02
#6590000
b100110001 G
12
#6600000
02
#6610000
b100110010 G
12
#6620000
02
#6630000
b100110011 G
12
#6640000
02
#6650000
b100110100 G
12
#6660000
02
#6670000
b100110101 G
12
#6680000
02
#6690000
b100110110 G
12
#6700000
02
1.
b1 y
00
#6710000
1Z
0o
b100110111 G
12
#6720000
02
#6730000
0Z
b100111000 G
0p
12
#6740000
02
#6750000
b100111001 G
12
#6760000
02
#6770000
b100111010 G
12
#6780000
02
#6790000
b100111011 G
12
#6800000
02
#6810000
b100111100 G
12
#6820000
02
#6830000
b100111101 G
12
#6840000
02
#6850000
b100111110 G
12
#6860000
02
#6870000
b100111111 G
12
#6880000
02
#6890000
b101000000 G
12
#6900000
bx000000000000000 -
02
10
#6910000
1[
1o
b101000001 G
12
#6920000
02
#6930000
b10 ^
b1001 \
0[
b101000010 G
b1111 j
b10000000001001 q
1p
12
#6940000
02
#6950000
b101000011 G
12
#6960000
02
#6970000
b101000100 G
12
#6980000
02
#6990000
b101000101 G
12
#7000000
02
#7010000
b101000110 G
12
#7020000
02
#7030000
b101000111 G
12
#7040000
02
#7050000
b101001000 G
12
#7060000
02
#7070000
b101001001 G
12
#7080000
02
#7090000
b101001010 G
12
#7100000
02
b0 y
00
#7110000
1Z
0o
b101001011 G
12
#7120000
02
#7130000
0Z
b101001100 G
0p
12
#7140000
02
#7150000
b101001101 G
12
#7160000
02
#7170000
b101001110 G
12
#7180000
02
#7190000
b101001111 G
12
#7200000
02
#7210000
b101010000 G
12
#7220000
02
#7230000
b101010001 G
12
#7240000
02
#7250000
b101010010 G
12
#7260000
02
#7270000
b101010011 G
12
#7280000
02
#7290000
b101010100 G
12
#7300000
b0 -
02
10
#7310000
1[
1o
b101010101 G
12
#7320000
02
#7330000
b1 ]
b0 ^
b10011 \
0[
b101010110 G
b10 r
b10000 j
b100000000010011 q
1p
12
#7340000
02
#7350000
1J
1:
19
1;
b10011 7
b10011 Y
b10011 k
b0 r
b101010111 G
12
#7360000
02
#7370000
b1 V
0F
b101011000 G
b1 r
b0 j
12
#7380000
02
#7390000
b101011001 G
12
#7400000
02
#7410000
b101011010 G
12
#7420000
02
#7430000
b101011011 G
12
#7440000
02
#7450000
b101011100 G
12
#7460000
02
#7470000
b101011101 G
12
#7480000
02
#7490000
b101011110 G
12
#7500000
02
b11111111111111111111111111111111 y
00
#7510000
1Z
0o
b101011111 G
12
#7520000
02
#7530000
0Z
b101100000 G
0p
12
#7540000
02
#7550000
b101100001 G
12
#7560000
02
#7570000
b101100010 G
12
#7580000
02
#7590000
b101100011 G
12
#7600000
z$
02
0.
1,
#7610000
b101100100 G
b0 r
12
#7620000
02
#7630000
b101100101 G
12
#7640000
02
#7650000
b101100110 G
12
#7660000
02
#7670000
b101100111 G
12
#7680000
02
#7690000
b101101000 G
12
#7700000
02
#7710000
b101101001 G
12
#7720000
02
#7730000
b101101010 G
12
#7740000
02
#7750000
b101101011 G
12
#7760000
02
#7770000
b101101100 G
12
#7780000
02
#7790000
b101101101 G
12
#7800000
02
#7810000
b101101110 G
12
#7820000
02
#7830000
b101101111 G
12
#7840000
02
#7850000
b101110000 G
12
#7860000
02
#7870000
b101110001 G
12
#7880000
02
#7890000
b101110010 G
12
#7900000
02
#7910000
b101110011 G
12
#7920000
02
#7930000
b101110100 G
12
#7940000
02
#7950000
b101110101 G
12
#7960000
02
#7970000
b101110110 G
12
#7980000
02
#7990000
b101110111 G
12
#8000000
02
#8010000
b101111000 G
12
#8020000
02
#8030000
b101111001 G
12
#8040000
02
#8050000
b101111010 G
12
#8060000
02
#8070000
b101111011 G
12
#8080000
02
#8090000
b101111100 G
12
#8100000
02
#8110000
b101111101 G
12
#8120000
02
#8130000
b101111110 G
12
#8140000
02
#8150000
b101111111 G
12
#8160000
02
#8170000
b110000000 G
12
#8180000
02
#8190000
b110000001 G
12
#8200000
02
#8210000
b110000010 G
12
#8220000
02
#8230000
b110000011 G
12
#8240000
02
#8250000
b110000100 G
12
#8260000
02
#8270000
b110000101 G
12
#8280000
02
#8290000
b110000110 G
12
#8300000
02
#8310000
b110000111 G
12
#8320000
02
#8330000
b110001000 G
12
#8340000
02
#8350000
b110001001 G
12
#8360000
02
#8370000
b110001010 G
12
#8380000
02
#8390000
b110001011 G
12
#8400000
02
#8410000
b110001100 G
12
#8420000
02
#8430000
b110001101 G
12
#8440000
02
#8450000
b110001110 G
12
#8460000
02
#8470000
b110001111 G
12
#8480000
02
#8490000
b110010000 G
12
#8500000
02
#8510000
b110010001 G
12
#8520000
02
#8530000
b110010010 G
12
#8540000
02
#8550000
b110010011 G
12
#8560000
02
#8570000
b110010100 G
12
#8580000
02
#8590000
b110010101 G
12
#8600000
02
#8610000
b110010110 G
12
#8620000
02
#8630000
b110010111 G
12
#8640000
02
#8650000
b110011000 G
12
#8660000
02
#8670000
b110011001 G
12
#8680000
02
#8690000
b110011010 G
12
#8700000
02
#8710000
b110011011 G
12
#8720000
02
#8730000
b110011100 G
12
#8740000
02
#8750000
b110011101 G
12
#8760000
02
#8770000
b110011110 G
12
#8780000
02
#8790000
b110011111 G
12
#8800000
02
#8810000
b110100000 G
12
#8820000
02
#8830000
b110100001 G
12
#8840000
02
#8850000
b110100010 G
12
#8860000
02
#8870000
b110100011 G
12
#8880000
02
#8890000
b110100100 G
12
#8900000
02
#8910000
b110100101 G
12
#8920000
02
#8930000
b110100110 G
12
#8940000
02
#8950000
b110100111 G
12
#8960000
02
#8970000
b110101000 G
12
#8980000
02
#8990000
b110101001 G
12
#9000000
02
#9010000
b110101010 G
12
#9020000
02
#9030000
b110101011 G
12
#9040000
02
#9050000
b110101100 G
12
#9060000
02
#9070000
b110101101 G
12
#9080000
02
#9090000
b110101110 G
12
#9100000
02
#9110000
b110101111 G
12
#9120000
02
#9130000
b110110000 G
12
#9140000
02
#9150000
b110110001 G
12
#9160000
02
#9170000
b110110010 G
12
#9180000
02
#9190000
b110110011 G
12
#9200000
02
#9210000
b110110100 G
12
#9220000
02
#9230000
b110110101 G
12
#9240000
02
#9250000
b110110110 G
12
#9260000
02
#9270000
b110110111 G
12
#9280000
02
#9290000
b110111000 G
12
#9300000
02
#9310000
b110111001 G
12
#9320000
02
#9330000
b110111010 G
12
#9340000
02
#9350000
b110111011 G
12
#9360000
02
#9370000
b110111100 G
12
#9380000
02
#9390000
b110111101 G
12
#9400000
02
#9410000
b110111110 G
12
#9420000
02
#9430000
b110111111 G
12
#9440000
02
#9450000
b111000000 G
12
#9460000
02
#9470000
b111000001 G
12
#9480000
02
#9490000
b111000010 G
12
#9500000
02
#9510000
b111000011 G
12
#9520000
02
#9530000
b111000100 G
12
#9540000
02
#9550000
b111000101 G
12
#9560000
02
#9570000
b111000110 G
12
#9580000
02
#9590000
b111000111 G
12
#9600000
02
#9610000
b111001000 G
12
#9620000
02
#9630000
b111001001 G
12
#9640000
02
#9650000
b111001010 G
12
#9660000
02
#9670000
b111001011 G
12
#9680000
02
#9690000
b111001100 G
12
#9700000
02
#9710000
b111001101 G
12
#9720000
02
#9730000
b111001110 G
12
#9740000
02
#9750000
b111001111 G
12
#9760000
02
#9770000
b111010000 G
12
#9780000
02
#9790000
b111010001 G
12
#9800000
02
#9810000
b111010010 G
12
#9820000
02
#9830000
b111010011 G
12
#9840000
02
#9850000
b111010100 G
12
#9860000
02
#9870000
b111010101 G
12
#9880000
02
#9890000
b111010110 G
12
#9900000
02
#9910000
b111010111 G
12
#9920000
02
#9930000
b111011000 G
12
#9940000
02
#9950000
b111011001 G
12
#9960000
02
#9970000
b111011010 G
12
#9980000
02
#9990000
b111011011 G
12
#10000000
02
#10010000
b111011100 G
12
#10020000
02
#10030000
b111011101 G
12
#10040000
02
#10050000
b111011110 G
12
#10060000
02
#10070000
b111011111 G
12
#10080000
02
#10090000
b111100000 G
12
#10100000
02
#10110000
b111100001 G
12
#10120000
02
#10130000
b111100010 G
12
#10140000
02
#10150000
b111100011 G
12
#10160000
02
#10170000
b111100100 G
12
#10180000
02
#10190000
b111100101 G
12
#10200000
02
#10210000
b111100110 G
12
#10220000
02
#10230000
b111100111 G
12
#10240000
02
#10250000
b111101000 G
12
#10260000
02
#10270000
b111101001 G
12
#10280000
02
#10290000
b111101010 G
12
#10300000
02
#10310000
b111101011 G
12
#10320000
02
#10330000
b111101100 G
12
#10340000
02
#10350000
b111101101 G
12
#10360000
02
#10370000
b111101110 G
12
#10380000
02
#10390000
b111101111 G
12
#10400000
02
#10410000
b111110000 G
12
#10420000
02
#10430000
b111110001 G
12
#10440000
02
#10450000
b111110010 G
12
#10460000
02
#10470000
b111110011 G
12
#10480000
02
#10490000
b111110100 G
12
#10500000
02
#10510000
b111110101 G
12
#10520000
02
#10530000
b111110110 G
12
#10540000
02
#10550000
b111110111 G
12
#10560000
02
#10570000
b111111000 G
12
#10580000
02
#10590000
b111111001 G
12
#10600000
02
#10610000
b111111010 G
12
#10620000
02
#10630000
b111111011 G
12
#10640000
02
#10650000
b111111100 G
12
#10660000
02
#10670000
b111111101 G
12
#10680000
02
#10690000
b111111110 G
12
#10700000
02
#10710000
b111111111 G
12
#10720000
02
#10730000
b1000000000 G
12
#10740000
02
#10750000
b1000000001 G
12
#10760000
02
#10770000
b1000000010 G
12
#10780000
02
#10790000
b1000000011 G
12
#10800000
02
#10810000
b1000000100 G
12
#10820000
02
#10830000
b1000000101 G
12
#10840000
02
#10850000
b1000000110 G
12
